{
  "runtimeTarget": {
    "name": ".NETCoreApp,Version=v6.0",
    "signature": ""
  },
  "compilationOptions": {},
  "targets": {
    ".NETCoreApp,Version=v6.0": {
      "OutlookCalendarWebAPI/1.0.0": {
        "dependencies": {
          "Karambolo.Extensions.Logging.File": "3.3.1",
          "Microsoft.Graph": "4.42.0",
          "Microsoft.Identity.Web": "1.25.3",
          "Microsoft.IdentityModel.Logging": "6.23.1",
          "Newtonsoft.Json": "13.0.1",
          "Npgsql": "6.0.7",
          "Npgsql.EntityFrameworkCore.PostgreSQL": "6.0.7",
          "Swashbuckle.AspNetCore": "6.2.3",
          "Swashbuckle.AspNetCore.Annotations": "6.4.0"
        },
        "runtime": {
          "OutlookCalendarWebAPI.dll": {}
        }
      },
      "Azure.Core/1.25.0": {
        "dependencies": {
          "Microsoft.Bcl.AsyncInterfaces": "1.1.1",
          "System.Diagnostics.DiagnosticSource": "6.0.0",
          "System.Memory.Data": "1.0.2",
          "System.Numerics.Vectors": "4.5.0",
          "System.Text.Encodings.Web": "6.0.0",
          "System.Text.Json": "6.0.6",
          "System.Threading.Tasks.Extensions": "4.5.4"
        },
        "runtime": {
          "lib/net5.0/Azure.Core.dll": {
            "assemblyVersion": "1.25.0.0",
            "fileVersion": "1.2500.22.33004"
          }
        }
      },
      "Azure.Identity/1.3.0": {
        "dependencies": {
          "Azure.Core": "1.25.0",
          "Microsoft.Identity.Client": "4.47.1",
          "Microsoft.Identity.Client.Extensions.Msal": "2.16.5",
          "System.Memory": "4.5.3",
          "System.Security.Cryptography.ProtectedData": "4.5.0",
          "System.Text.Json": "6.0.6",
          "System.Threading.Tasks.Extensions": "4.5.4"
        },
        "runtime": {
          "lib/netstandard2.0/Azure.Identity.dll": {
            "assemblyVersion": "1.3.0.0",
            "fileVersion": "1.300.20.56202"
          }
        }
      },
      "Azure.Security.KeyVault.Certificates/4.1.0": {
        "dependencies": {
          "Azure.Core": "1.25.0",
          "System.Memory": "4.5.3",
          "System.Text.Json": "6.0.6",
          "System.Threading.Tasks.Extensions": "4.5.4"
        },
        "runtime": {
          "lib/netstandard2.0/Azure.Security.KeyVault.Certificates.dll": {
            "assemblyVersion": "4.1.0.0",
            "fileVersion": "4.100.20.41103"
          }
        }
      },
      "Azure.Security.KeyVault.Secrets/4.1.0": {
        "dependencies": {
          "Azure.Core": "1.25.0",
          "System.Memory": "4.5.3",
          "System.Text.Json": "6.0.6",
          "System.Threading.Tasks.Extensions": "4.5.4"
        },
        "runtime": {
          "lib/netstandard2.0/Azure.Security.KeyVault.Secrets.dll": {
            "assemblyVersion": "4.1.0.0",
            "fileVersion": "4.100.20.41103"
          }
        }
      },
      "Karambolo.Extensions.Logging.File/3.3.1": {
        "dependencies": {
          "Microsoft.Extensions.FileProviders.Physical": "3.0.0",
          "Microsoft.Extensions.Logging.Configuration": "3.0.0",
          "Microsoft.Extensions.Options.ConfigurationExtensions": "3.0.0",
          "System.Threading.Channels": "4.7.1"
        },
        "runtime": {
          "lib/netstandard2.1/Karambolo.Extensions.Logging.File.dll": {
            "assemblyVersion": "3.3.0.0",
            "fileVersion": "3.3.1.108"
          }
        }
      },
      "Microsoft.AspNetCore.Authentication.JwtBearer/5.0.12": {
        "dependencies": {
          "Microsoft.IdentityModel.Protocols.OpenIdConnect": "6.23.1"
        },
        "runtime": {
          "lib/net5.0/Microsoft.AspNetCore.Authentication.JwtBearer.dll": {
            "assemblyVersion": "5.0.12.0",
            "fileVersion": "5.0.1221.52401"
          }
        }
      },
      "Microsoft.AspNetCore.Authentication.OpenIdConnect/5.0.12": {
        "dependencies": {
          "Microsoft.IdentityModel.Protocols.OpenIdConnect": "6.23.1"
        },
        "runtime": {
          "lib/net5.0/Microsoft.AspNetCore.Authentication.OpenIdConnect.dll": {
            "assemblyVersion": "5.0.12.0",
            "fileVersion": "5.0.1221.52401"
          }
        }
      },
      "Microsoft.AspNetCore.Cryptography.Internal/5.0.8": {},
      "Microsoft.AspNetCore.DataProtection/5.0.8": {
        "dependencies": {
          "Microsoft.AspNetCore.Cryptography.Internal": "5.0.8",
          "Microsoft.AspNetCore.DataProtection.Abstractions": "5.0.8",
          "Microsoft.Extensions.DependencyInjection.Abstractions": "6.0.0",
          "Microsoft.Extensions.Hosting.Abstractions": "5.0.0",
          "Microsoft.Extensions.Logging.Abstractions": "6.0.0",
          "Microsoft.Extensions.Options": "6.0.0",
          "Microsoft.Win32.Registry": "5.0.0",
          "System.Security.Cryptography.Xml": "6.0.1"
        }
      },
      "Microsoft.AspNetCore.DataProtection.Abstractions/5.0.8": {},
      "Microsoft.Bcl.AsyncInterfaces/1.1.1": {
        "runtime": {
          "lib/netstandard2.1/Microsoft.Bcl.AsyncInterfaces.dll": {
            "assemblyVersion": "1.0.0.0",
            "fileVersion": "4.700.20.21406"
          }
        }
      },
      "Microsoft.CSharp/4.5.0": {},
      "Microsoft.EntityFrameworkCore/6.0.7": {
        "dependencies": {
          "Microsoft.EntityFrameworkCore.Abstractions": "6.0.7",
          "Microsoft.EntityFrameworkCore.Analyzers": "6.0.7",
          "Microsoft.Extensions.Caching.Memory": "6.0.1",
          "Microsoft.Extensions.DependencyInjection": "6.0.0",
          "Microsoft.Extensions.Logging": "6.0.0",
          "System.Collections.Immutable": "6.0.0",
          "System.Diagnostics.DiagnosticSource": "6.0.0"
        },
        "runtime": {
          "lib/net6.0/Microsoft.EntityFrameworkCore.dll": {
            "assemblyVersion": "6.0.7.0",
            "fileVersion": "6.0.722.31501"
          }
        }
      },
      "Microsoft.EntityFrameworkCore.Abstractions/6.0.7": {
        "runtime": {
          "lib/net6.0/Microsoft.EntityFrameworkCore.Abstractions.dll": {
            "assemblyVersion": "6.0.7.0",
            "fileVersion": "6.0.722.31501"
          }
        }
      },
      "Microsoft.EntityFrameworkCore.Analyzers/6.0.7": {},
      "Microsoft.EntityFrameworkCore.Relational/6.0.7": {
        "dependencies": {
          "Microsoft.EntityFrameworkCore": "6.0.7",
          "Microsoft.Extensions.Configuration.Abstractions": "6.0.0"
        },
        "runtime": {
          "lib/net6.0/Microsoft.EntityFrameworkCore.Relational.dll": {
            "assemblyVersion": "6.0.7.0",
            "fileVersion": "6.0.722.31501"
          }
        }
      },
      "Microsoft.Extensions.ApiDescription.Server/3.0.0": {},
      "Microsoft.Extensions.Caching.Abstractions/6.0.0": {
        "dependencies": {
          "Microsoft.Extensions.Primitives": "6.0.0"
        }
      },
      "Microsoft.Extensions.Caching.Memory/6.0.1": {
        "dependencies": {
          "Microsoft.Extensions.Caching.Abstractions": "6.0.0",
          "Microsoft.Extensions.DependencyInjection.Abstractions": "6.0.0",
          "Microsoft.Extensions.Logging.Abstractions": "6.0.0",
          "Microsoft.Extensions.Options": "6.0.0",
          "Microsoft.Extensions.Primitives": "6.0.0"
        },
        "runtime": {
          "lib/netstandard2.0/Microsoft.Extensions.Caching.Memory.dll": {
            "assemblyVersion": "6.0.0.0",
            "fileVersion": "6.0.222.6406"
          }
        }
      },
      "Microsoft.Extensions.Configuration/3.0.0": {
        "dependencies": {
          "Microsoft.Extensions.Configuration.Abstractions": "6.0.0"
        }
      },
      "Microsoft.Extensions.Configuration.Abstractions/6.0.0": {
        "dependencies": {
          "Microsoft.Extensions.Primitives": "6.0.0"
        }
      },
      "Microsoft.Extensions.Configuration.Binder/3.0.0": {
        "dependencies": {
          "Microsoft.Extensions.Configuration": "3.0.0"
        }
      },
      "Microsoft.Extensions.DependencyInjection/6.0.0": {
        "dependencies": {
          "Microsoft.Extensions.DependencyInjection.Abstractions": "6.0.0",
          "System.Runtime.CompilerServices.Unsafe": "6.0.0"
        }
      },
      "Microsoft.Extensions.DependencyInjection.Abstractions/6.0.0": {},
      "Microsoft.Extensions.FileProviders.Abstractions/5.0.0": {
        "dependencies": {
          "Microsoft.Extensions.Primitives": "6.0.0"
        }
      },
      "Microsoft.Extensions.FileProviders.Physical/3.0.0": {
        "dependencies": {
          "Microsoft.Extensions.FileProviders.Abstractions": "5.0.0",
          "Microsoft.Extensions.FileSystemGlobbing": "3.0.0"
        }
      },
      "Microsoft.Extensions.FileSystemGlobbing/3.0.0": {},
      "Microsoft.Extensions.Hosting.Abstractions/5.0.0": {
        "dependencies": {
          "Microsoft.Extensions.Configuration.Abstractions": "6.0.0",
          "Microsoft.Extensions.DependencyInjection.Abstractions": "6.0.0",
          "Microsoft.Extensions.FileProviders.Abstractions": "5.0.0"
        }
      },
      "Microsoft.Extensions.Logging/6.0.0": {
        "dependencies": {
          "Microsoft.Extensions.DependencyInjection": "6.0.0",
          "Microsoft.Extensions.DependencyInjection.Abstractions": "6.0.0",
          "Microsoft.Extensions.Logging.Abstractions": "6.0.0",
          "Microsoft.Extensions.Options": "6.0.0",
          "System.Diagnostics.DiagnosticSource": "6.0.0"
        }
      },
      "Microsoft.Extensions.Logging.Abstractions/6.0.0": {},
      "Microsoft.Extensions.Logging.Configuration/3.0.0": {
        "dependencies": {
          "Microsoft.Extensions.Logging": "6.0.0",
          "Microsoft.Extensions.Options.ConfigurationExtensions": "3.0.0"
        }
      },
      "Microsoft.Extensions.Options/6.0.0": {
        "dependencies": {
          "Microsoft.Extensions.DependencyInjection.Abstractions": "6.0.0",
          "Microsoft.Extensions.Primitives": "6.0.0"
        }
      },
      "Microsoft.Extensions.Options.ConfigurationExtensions/3.0.0": {
        "dependencies": {
          "Microsoft.Extensions.Configuration.Abstractions": "6.0.0",
          "Microsoft.Extensions.Configuration.Binder": "3.0.0",
          "Microsoft.Extensions.DependencyInjection.Abstractions": "6.0.0",
          "Microsoft.Extensions.Options": "6.0.0"
        }
      },
      "Microsoft.Extensions.Primitives/6.0.0": {
        "dependencies": {
          "System.Runtime.CompilerServices.Unsafe": "6.0.0"
        }
      },
      "Microsoft.Graph/4.42.0": {
        "dependencies": {
          "Microsoft.Graph.Core": "2.0.13"
        },
        "runtime": {
          "lib/netstandard2.0/Microsoft.Graph.dll": {
            "assemblyVersion": "4.42.0.0",
            "fileVersion": "4.42.0.0"
          }
        }
      },
      "Microsoft.Graph.Core/2.0.13": {
        "dependencies": {
          "Azure.Core": "1.25.0",
          "Microsoft.Identity.Client": "4.47.1",
          "Microsoft.IdentityModel.Protocols.OpenIdConnect": "6.23.1",
          "System.Diagnostics.DiagnosticSource": "6.0.0",
          "System.Net.Http": "4.3.4",
          "System.Security.Claims": "4.3.0",
          "System.Text.Json": "6.0.6"
        },
        "runtime": {
          "lib/netstandard2.0/Microsoft.Graph.Core.dll": {
            "assemblyVersion": "2.0.13.0",
            "fileVersion": "2.0.13.0"
          }
        }
      },
      "Microsoft.Identity.Client/4.47.1": {
        "dependencies": {
          "Microsoft.IdentityModel.Abstractions": "6.23.1"
        },
        "runtime": {
          "lib/netcoreapp2.1/Microsoft.Identity.Client.dll": {
            "assemblyVersion": "4.47.1.0",
            "fileVersion": "4.47.1.0"
          }
        }
      },
      "Microsoft.Identity.Client.Extensions.Msal/2.16.5": {
        "dependencies": {
          "Microsoft.Identity.Client": "4.47.1",
          "System.Security.Cryptography.ProtectedData": "4.5.0"
        },
        "runtime": {
          "lib/netcoreapp2.1/Microsoft.Identity.Client.Extensions.Msal.dll": {
            "assemblyVersion": "2.16.5.0",
            "fileVersion": "2.16.5.0"
          }
        }
      },
      "Microsoft.Identity.Web/1.25.3": {
        "dependencies": {
          "Microsoft.AspNetCore.Authentication.JwtBearer": "5.0.12",
          "Microsoft.AspNetCore.Authentication.OpenIdConnect": "5.0.12",
          "Microsoft.Identity.Web.Certificate": "1.25.3",
          "Microsoft.Identity.Web.Certificateless": "1.25.3",
          "Microsoft.Identity.Web.TokenCache": "1.25.3",
          "Microsoft.IdentityModel.Logging": "6.23.1",
          "Microsoft.IdentityModel.LoggingExtensions": "6.23.1",
          "Microsoft.IdentityModel.Protocols.OpenIdConnect": "6.23.1",
          "Microsoft.IdentityModel.Validators": "6.23.1",
          "System.IdentityModel.Tokens.Jwt": "6.23.1",
          "System.Text.Encodings.Web": "6.0.0"
        },
        "runtime": {
          "lib/net5.0/Microsoft.Identity.Web.dll": {
            "assemblyVersion": "1.25.3.0",
            "fileVersion": "1.25.3.0"
          }
        }
      },
      "Microsoft.Identity.Web.Certificate/1.25.3": {
        "dependencies": {
          "Azure.Identity": "1.3.0",
          "Azure.Security.KeyVault.Certificates": "4.1.0",
          "Azure.Security.KeyVault.Secrets": "4.1.0",
          "System.Text.Encodings.Web": "6.0.0"
        },
        "runtime": {
          "lib/net5.0/Microsoft.Identity.Web.Certificate.dll": {
            "assemblyVersion": "1.25.3.0",
            "fileVersion": "1.25.3.0"
          }
        }
      },
      "Microsoft.Identity.Web.Certificateless/1.25.3": {
        "dependencies": {
          "Azure.Identity": "1.3.0",
          "System.Text.Encodings.Web": "6.0.0"
        },
        "runtime": {
          "lib/netstandard2.0/Microsoft.Identity.Web.Certificateless.dll": {
            "assemblyVersion": "1.25.3.0",
            "fileVersion": "1.25.3.0"
          }
        }
      },
      "Microsoft.Identity.Web.TokenCache/1.25.3": {
        "dependencies": {
          "Microsoft.AspNetCore.DataProtection": "5.0.8",
          "Microsoft.Extensions.Caching.Memory": "6.0.1",
          "Microsoft.Extensions.Logging": "6.0.0",
          "Microsoft.Identity.Client": "4.47.1",
          "System.Security.Cryptography.Xml": "6.0.1",
          "System.Text.Encodings.Web": "6.0.0"
        },
        "runtime": {
          "lib/net5.0/Microsoft.Identity.Web.TokenCache.dll": {
            "assemblyVersion": "1.25.3.0",
            "fileVersion": "1.25.3.0"
          }
        }
      },
      "Microsoft.IdentityModel.Abstractions/6.23.1": {
        "runtime": {
          "lib/net6.0/Microsoft.IdentityModel.Abstractions.dll": {
            "assemblyVersion": "6.23.1.0",
            "fileVersion": "6.23.1.30908"
          }
        }
      },
      "Microsoft.IdentityModel.JsonWebTokens/6.23.1": {
        "dependencies": {
          "Microsoft.IdentityModel.Tokens": "6.23.1",
          "System.Text.Encoding": "4.3.0",
          "System.Text.Json": "6.0.6"
        },
        "runtime": {
          "lib/net6.0/Microsoft.IdentityModel.JsonWebTokens.dll": {
            "assemblyVersion": "6.23.1.0",
            "fileVersion": "6.23.1.30908"
          }
        }
      },
      "Microsoft.IdentityModel.Logging/6.23.1": {
        "dependencies": {
          "Microsoft.IdentityModel.Abstractions": "6.23.1"
        },
        "runtime": {
          "lib/net6.0/Microsoft.IdentityModel.Logging.dll": {
            "assemblyVersion": "6.23.1.0",
            "fileVersion": "6.23.1.30908"
          }
        }
      },
      "Microsoft.IdentityModel.LoggingExtensions/6.23.1": {
        "dependencies": {
          "Microsoft.Extensions.Logging.Abstractions": "6.0.0",
          "Microsoft.IdentityModel.Abstractions": "6.23.1"
        },
        "runtime": {
          "lib/netstandard2.0/Microsoft.IdentityModel.LoggingExtensions.dll": {
            "assemblyVersion": "6.23.1.0",
            "fileVersion": "6.23.1.30908"
          }
        }
      },
      "Microsoft.IdentityModel.Protocols/6.23.1": {
        "dependencies": {
          "Microsoft.IdentityModel.Logging": "6.23.1",
          "Microsoft.IdentityModel.Tokens": "6.23.1"
        },
        "runtime": {
          "lib/net6.0/Microsoft.IdentityModel.Protocols.dll": {
            "assemblyVersion": "6.23.1.0",
            "fileVersion": "6.23.1.30908"
          }
        }
      },
      "Microsoft.IdentityModel.Protocols.OpenIdConnect/6.23.1": {
        "dependencies": {
          "Microsoft.IdentityModel.Protocols": "6.23.1",
          "System.IdentityModel.Tokens.Jwt": "6.23.1"
        },
        "runtime": {
          "lib/net6.0/Microsoft.IdentityModel.Protocols.OpenIdConnect.dll": {
            "assemblyVersion": "6.23.1.0",
            "fileVersion": "6.23.1.30908"
          }
        }
      },
      "Microsoft.IdentityModel.Tokens/6.23.1": {
        "dependencies": {
          "Microsoft.CSharp": "4.5.0",
          "Microsoft.IdentityModel.Logging": "6.23.1",
          "System.Security.Cryptography.Cng": "4.5.0"
        },
        "runtime": {
          "lib/net6.0/Microsoft.IdentityModel.Tokens.dll": {
            "assemblyVersion": "6.23.1.0",
            "fileVersion": "6.23.1.30908"
          }
        }
      },
      "Microsoft.IdentityModel.Validators/6.23.1": {
        "dependencies": {
          "Microsoft.IdentityModel.Protocols": "6.23.1",
          "Microsoft.IdentityModel.Protocols.OpenIdConnect": "6.23.1",
          "System.IdentityModel.Tokens.Jwt": "6.23.1"
        },
        "runtime": {
          "lib/net6.0/Microsoft.IdentityModel.Validators.dll": {
            "assemblyVersion": "6.23.1.0",
            "fileVersion": "6.23.1.30908"
          }
        }
      },
      "Microsoft.NETCore.Platforms/1.1.1": {},
      "Microsoft.NETCore.Targets/1.1.0": {},
      "Microsoft.OpenApi/1.2.3": {
        "runtime": {
          "lib/netstandard2.0/Microsoft.OpenApi.dll": {
            "assemblyVersion": "1.2.3.0",
            "fileVersion": "1.2.3.0"
          }
        }
      },
      "Microsoft.Win32.Registry/5.0.0": {
        "dependencies": {
          "System.Security.AccessControl": "6.0.0",
          "System.Security.Principal.Windows": "5.0.0"
        }
      },
      "Newtonsoft.Json/13.0.1": {
        "runtime": {
          "lib/netstandard2.0/Newtonsoft.Json.dll": {
            "assemblyVersion": "13.0.0.0",
            "fileVersion": "13.0.1.25517"
          }
        }
      },
      "Npgsql/6.0.7": {
        "dependencies": {
          "System.Runtime.CompilerServices.Unsafe": "6.0.0"
        },
        "runtime": {
          "lib/net6.0/Npgsql.dll": {
            "assemblyVersion": "6.0.7.0",
            "fileVersion": "6.0.7.0"
          }
        }
      },
      "Npgsql.EntityFrameworkCore.PostgreSQL/6.0.7": {
        "dependencies": {
          "Microsoft.EntityFrameworkCore": "6.0.7",
          "Microsoft.EntityFrameworkCore.Abstractions": "6.0.7",
          "Microsoft.EntityFrameworkCore.Relational": "6.0.7",
          "Npgsql": "6.0.7"
        },
        "runtime": {
          "lib/net6.0/Npgsql.EntityFrameworkCore.PostgreSQL.dll": {
            "assemblyVersion": "6.0.7.0",
            "fileVersion": "6.0.7.0"
          }
        }
      },
      "runtime.debian.8-x64.runtime.native.System.Security.Cryptography.OpenSsl/4.3.2": {},
      "runtime.fedora.23-x64.runtime.native.System.Security.Cryptography.OpenSsl/4.3.2": {},
      "runtime.fedora.24-x64.runtime.native.System.Security.Cryptography.OpenSsl/4.3.2": {},
      "runtime.native.System/4.3.0": {
        "dependencies": {
          "Microsoft.NETCore.Platforms": "1.1.1",
          "Microsoft.NETCore.Targets": "1.1.0"
        }
      },
      "runtime.native.System.Net.Http/4.3.0": {
        "dependencies": {
          "Microsoft.NETCore.Platforms": "1.1.1",
          "Microsoft.NETCore.Targets": "1.1.0"
        }
      },
      "runtime.native.System.Security.Cryptography.Apple/4.3.0": {
        "dependencies": {
          "runtime.osx.10.10-x64.runtime.native.System.Security.Cryptography.Apple": "4.3.0"
        }
      },
      "runtime.native.System.Security.Cryptography.OpenSsl/4.3.2": {
        "dependencies": {
          "runtime.debian.8-x64.runtime.native.System.Security.Cryptography.OpenSsl": "4.3.2",
          "runtime.fedora.23-x64.runtime.native.System.Security.Cryptography.OpenSsl": "4.3.2",
          "runtime.fedora.24-x64.runtime.native.System.Security.Cryptography.OpenSsl": "4.3.2",
          "runtime.opensuse.13.2-x64.runtime.native.System.Security.Cryptography.OpenSsl": "4.3.2",
          "runtime.opensuse.42.1-x64.runtime.native.System.Security.Cryptography.OpenSsl": "4.3.2",
          "runtime.osx.10.10-x64.runtime.native.System.Security.Cryptography.OpenSsl": "4.3.2",
          "runtime.rhel.7-x64.runtime.native.System.Security.Cryptography.OpenSsl": "4.3.2",
          "runtime.ubuntu.14.04-x64.runtime.native.System.Security.Cryptography.OpenSsl": "4.3.2",
          "runtime.ubuntu.16.04-x64.runtime.native.System.Security.Cryptography.OpenSsl": "4.3.2",
          "runtime.ubuntu.16.10-x64.runtime.native.System.Security.Cryptography.OpenSsl": "4.3.2"
        }
      },
      "runtime.opensuse.13.2-x64.runtime.native.System.Security.Cryptography.OpenSsl/4.3.2": {},
      "runtime.opensuse.42.1-x64.runtime.native.System.Security.Cryptography.OpenSsl/4.3.2": {},
      "runtime.osx.10.10-x64.runtime.native.System.Security.Cryptography.Apple/4.3.0": {},
      "runtime.osx.10.10-x64.runtime.native.System.Security.Cryptography.OpenSsl/4.3.2": {},
      "runtime.rhel.7-x64.runtime.native.System.Security.Cryptography.OpenSsl/4.3.2": {},
      "runtime.ubuntu.14.04-x64.runtime.native.System.Security.Cryptography.OpenSsl/4.3.2": {},
      "runtime.ubuntu.16.04-x64.runtime.native.System.Security.Cryptography.OpenSsl/4.3.2": {},
      "runtime.ubuntu.16.10-x64.runtime.native.System.Security.Cryptography.OpenSsl/4.3.2": {},
      "Swashbuckle.AspNetCore/6.2.3": {
        "dependencies": {
          "Microsoft.Extensions.ApiDescription.Server": "3.0.0",
          "Swashbuckle.AspNetCore.Swagger": "6.4.0",
          "Swashbuckle.AspNetCore.SwaggerGen": "6.4.0",
          "Swashbuckle.AspNetCore.SwaggerUI": "6.2.3"
        }
      },
      "Swashbuckle.AspNetCore.Annotations/6.4.0": {
        "dependencies": {
          "Swashbuckle.AspNetCore.SwaggerGen": "6.4.0"
        },
        "runtime": {
          "lib/net6.0/Swashbuckle.AspNetCore.Annotations.dll": {
            "assemblyVersion": "6.4.0.0",
            "fileVersion": "6.4.0.0"
          }
        }
      },
      "Swashbuckle.AspNetCore.Swagger/6.4.0": {
        "dependencies": {
          "Microsoft.OpenApi": "1.2.3"
        },
        "runtime": {
          "lib/net6.0/Swashbuckle.AspNetCore.Swagger.dll": {
            "assemblyVersion": "6.4.0.0",
            "fileVersion": "6.4.0.0"
          }
        }
      },
      "Swashbuckle.AspNetCore.SwaggerGen/6.4.0": {
        "dependencies": {
          "Swashbuckle.AspNetCore.Swagger": "6.4.0"
        },
        "runtime": {
          "lib/net6.0/Swashbuckle.AspNetCore.SwaggerGen.dll": {
            "assemblyVersion": "6.4.0.0",
            "fileVersion": "6.4.0.0"
          }
        }
      },
      "Swashbuckle.AspNetCore.SwaggerUI/6.2.3": {
        "runtime": {
          "lib/net6.0/Swashbuckle.AspNetCore.SwaggerUI.dll": {
            "assemblyVersion": "6.2.3.0",
            "fileVersion": "6.2.3.0"
          }
        }
      },
      "System.Collections/4.3.0": {
        "dependencies": {
          "Microsoft.NETCore.Platforms": "1.1.1",
          "Microsoft.NETCore.Targets": "1.1.0",
          "System.Runtime": "4.3.0"
        }
      },
      "System.Collections.Concurrent/4.3.0": {
        "dependencies": {
          "System.Collections": "4.3.0",
          "System.Diagnostics.Debug": "4.3.0",
          "System.Diagnostics.Tracing": "4.3.0",
          "System.Globalization": "4.3.0",
          "System.Reflection": "4.3.0",
          "System.Resources.ResourceManager": "4.3.0",
          "System.Runtime": "4.3.0",
          "System.Runtime.Extensions": "4.3.0",
          "System.Threading": "4.3.0",
          "System.Threading.Tasks": "4.3.0"
        }
      },
      "System.Collections.Immutable/6.0.0": {
        "dependencies": {
          "System.Runtime.CompilerServices.Unsafe": "6.0.0"
        }
      },
      "System.Diagnostics.Debug/4.3.0": {
        "dependencies": {
          "Microsoft.NETCore.Platforms": "1.1.1",
          "Microsoft.NETCore.Targets": "1.1.0",
          "System.Runtime": "4.3.0"
        }
      },
      "System.Diagnostics.DiagnosticSource/6.0.0": {
        "dependencies": {
          "System.Runtime.CompilerServices.Unsafe": "6.0.0"
        }
      },
      "System.Diagnostics.Tracing/4.3.0": {
        "dependencies": {
          "Microsoft.NETCore.Platforms": "1.1.1",
          "Microsoft.NETCore.Targets": "1.1.0",
          "System.Runtime": "4.3.0"
        }
      },
      "System.Formats.Asn1/6.0.0": {},
      "System.Globalization/4.3.0": {
        "dependencies": {
          "Microsoft.NETCore.Platforms": "1.1.1",
          "Microsoft.NETCore.Targets": "1.1.0",
          "System.Runtime": "4.3.0"
        }
      },
      "System.Globalization.Calendars/4.3.0": {
        "dependencies": {
          "Microsoft.NETCore.Platforms": "1.1.1",
          "Microsoft.NETCore.Targets": "1.1.0",
          "System.Globalization": "4.3.0",
          "System.Runtime": "4.3.0"
        }
      },
      "System.Globalization.Extensions/4.3.0": {
        "dependencies": {
          "Microsoft.NETCore.Platforms": "1.1.1",
          "System.Globalization": "4.3.0",
          "System.Resources.ResourceManager": "4.3.0",
          "System.Runtime": "4.3.0",
          "System.Runtime.Extensions": "4.3.0",
          "System.Runtime.InteropServices": "4.3.0"
        }
      },
      "System.IdentityModel.Tokens.Jwt/6.23.1": {
        "dependencies": {
          "Microsoft.IdentityModel.JsonWebTokens": "6.23.1",
          "Microsoft.IdentityModel.Tokens": "6.23.1"
        },
        "runtime": {
          "lib/net6.0/System.IdentityModel.Tokens.Jwt.dll": {
            "assemblyVersion": "6.23.1.0",
            "fileVersion": "6.23.1.30908"
          }
        }
      },
      "System.IO/4.3.0": {
        "dependencies": {
          "Microsoft.NETCore.Platforms": "1.1.1",
          "Microsoft.NETCore.Targets": "1.1.0",
          "System.Runtime": "4.3.0",
          "System.Text.Encoding": "4.3.0",
          "System.Threading.Tasks": "4.3.0"
        }
      },
      "System.IO.FileSystem/4.3.0": {
        "dependencies": {
          "Microsoft.NETCore.Platforms": "1.1.1",
          "Microsoft.NETCore.Targets": "1.1.0",
          "System.IO": "4.3.0",
          "System.IO.FileSystem.Primitives": "4.3.0",
          "System.Runtime": "4.3.0",
          "System.Runtime.Handles": "4.3.0",
          "System.Text.Encoding": "4.3.0",
          "System.Threading.Tasks": "4.3.0"
        }
      },
      "System.IO.FileSystem.Primitives/4.3.0": {
        "dependencies": {
          "System.Runtime": "4.3.0"
        }
      },
      "System.Linq/4.3.0": {
        "dependencies": {
          "System.Collections": "4.3.0",
          "System.Diagnostics.Debug": "4.3.0",
          "System.Resources.ResourceManager": "4.3.0",
          "System.Runtime": "4.3.0",
          "System.Runtime.Extensions": "4.3.0"
        }
      },
      "System.Memory/4.5.3": {},
      "System.Memory.Data/1.0.2": {
        "dependencies": {
          "System.Text.Encodings.Web": "6.0.0",
          "System.Text.Json": "6.0.6"
        },
        "runtime": {
          "lib/netstandard2.0/System.Memory.Data.dll": {
            "assemblyVersion": "1.0.2.0",
            "fileVersion": "1.0.221.20802"
          }
        }
      },
      "System.Net.Http/4.3.4": {
        "dependencies": {
          "Microsoft.NETCore.Platforms": "1.1.1",
          "System.Collections": "4.3.0",
          "System.Diagnostics.Debug": "4.3.0",
          "System.Diagnostics.DiagnosticSource": "6.0.0",
          "System.Diagnostics.Tracing": "4.3.0",
          "System.Globalization": "4.3.0",
          "System.Globalization.Extensions": "4.3.0",
          "System.IO": "4.3.0",
          "System.IO.FileSystem": "4.3.0",
          "System.Net.Primitives": "4.3.0",
          "System.Resources.ResourceManager": "4.3.0",
          "System.Runtime": "4.3.0",
          "System.Runtime.Extensions": "4.3.0",
          "System.Runtime.Handles": "4.3.0",
          "System.Runtime.InteropServices": "4.3.0",
          "System.Security.Cryptography.Algorithms": "4.3.0",
          "System.Security.Cryptography.Encoding": "4.3.0",
          "System.Security.Cryptography.OpenSsl": "4.3.0",
          "System.Security.Cryptography.Primitives": "4.3.0",
          "System.Security.Cryptography.X509Certificates": "4.3.0",
          "System.Text.Encoding": "4.3.0",
          "System.Threading": "4.3.0",
          "System.Threading.Tasks": "4.3.0",
          "runtime.native.System": "4.3.0",
          "runtime.native.System.Net.Http": "4.3.0",
          "runtime.native.System.Security.Cryptography.OpenSsl": "4.3.2"
        }
      },
      "System.Net.Primitives/4.3.0": {
        "dependencies": {
          "Microsoft.NETCore.Platforms": "1.1.1",
          "Microsoft.NETCore.Targets": "1.1.0",
          "System.Runtime": "4.3.0",
          "System.Runtime.Handles": "4.3.0"
        }
      },
      "System.Numerics.Vectors/4.5.0": {},
      "System.Reflection/4.3.0": {
        "dependencies": {
          "Microsoft.NETCore.Platforms": "1.1.1",
          "Microsoft.NETCore.Targets": "1.1.0",
          "System.IO": "4.3.0",
          "System.Reflection.Primitives": "4.3.0",
          "System.Runtime": "4.3.0"
        }
      },
      "System.Reflection.Primitives/4.3.0": {
        "dependencies": {
          "Microsoft.NETCore.Platforms": "1.1.1",
          "Microsoft.NETCore.Targets": "1.1.0",
          "System.Runtime": "4.3.0"
        }
      },
      "System.Resources.ResourceManager/4.3.0": {
        "dependencies": {
          "Microsoft.NETCore.Platforms": "1.1.1",
          "Microsoft.NETCore.Targets": "1.1.0",
          "System.Globalization": "4.3.0",
          "System.Reflection": "4.3.0",
          "System.Runtime": "4.3.0"
        }
      },
      "System.Runtime/4.3.0": {
        "dependencies": {
          "Microsoft.NETCore.Platforms": "1.1.1",
          "Microsoft.NETCore.Targets": "1.1.0"
        }
      },
      "System.Runtime.CompilerServices.Unsafe/6.0.0": {},
      "System.Runtime.Extensions/4.3.0": {
        "dependencies": {
          "Microsoft.NETCore.Platforms": "1.1.1",
          "Microsoft.NETCore.Targets": "1.1.0",
          "System.Runtime": "4.3.0"
        }
      },
      "System.Runtime.Handles/4.3.0": {
        "dependencies": {
          "Microsoft.NETCore.Platforms": "1.1.1",
          "Microsoft.NETCore.Targets": "1.1.0",
          "System.Runtime": "4.3.0"
        }
      },
      "System.Runtime.InteropServices/4.3.0": {
        "dependencies": {
          "Microsoft.NETCore.Platforms": "1.1.1",
          "Microsoft.NETCore.Targets": "1.1.0",
          "System.Reflection": "4.3.0",
          "System.Reflection.Primitives": "4.3.0",
          "System.Runtime": "4.3.0",
          "System.Runtime.Handles": "4.3.0"
        }
      },
      "System.Runtime.Numerics/4.3.0": {
        "dependencies": {
          "System.Globalization": "4.3.0",
          "System.Resources.ResourceManager": "4.3.0",
          "System.Runtime": "4.3.0",
          "System.Runtime.Extensions": "4.3.0"
        }
      },
      "System.Security.AccessControl/6.0.0": {},
      "System.Security.Claims/4.3.0": {
        "dependencies": {
          "System.Collections": "4.3.0",
          "System.Globalization": "4.3.0",
          "System.IO": "4.3.0",
          "System.Resources.ResourceManager": "4.3.0",
          "System.Runtime": "4.3.0",
          "System.Runtime.Extensions": "4.3.0",
          "System.Security.Principal": "4.3.0"
        }
      },
      "System.Security.Cryptography.Algorithms/4.3.0": {
        "dependencies": {
          "Microsoft.NETCore.Platforms": "1.1.1",
          "System.Collections": "4.3.0",
          "System.IO": "4.3.0",
          "System.Resources.ResourceManager": "4.3.0",
          "System.Runtime": "4.3.0",
          "System.Runtime.Extensions": "4.3.0",
          "System.Runtime.Handles": "4.3.0",
          "System.Runtime.InteropServices": "4.3.0",
          "System.Runtime.Numerics": "4.3.0",
          "System.Security.Cryptography.Encoding": "4.3.0",
          "System.Security.Cryptography.Primitives": "4.3.0",
          "System.Text.Encoding": "4.3.0",
          "runtime.native.System.Security.Cryptography.Apple": "4.3.0",
          "runtime.native.System.Security.Cryptography.OpenSsl": "4.3.2"
        }
      },
      "System.Security.Cryptography.Cng/4.5.0": {},
      "System.Security.Cryptography.Csp/4.3.0": {
        "dependencies": {
          "Microsoft.NETCore.Platforms": "1.1.1",
          "System.IO": "4.3.0",
          "System.Reflection": "4.3.0",
          "System.Resources.ResourceManager": "4.3.0",
          "System.Runtime": "4.3.0",
          "System.Runtime.Extensions": "4.3.0",
          "System.Runtime.Handles": "4.3.0",
          "System.Runtime.InteropServices": "4.3.0",
          "System.Security.Cryptography.Algorithms": "4.3.0",
          "System.Security.Cryptography.Encoding": "4.3.0",
          "System.Security.Cryptography.Primitives": "4.3.0",
          "System.Text.Encoding": "4.3.0",
          "System.Threading": "4.3.0"
        }
      },
      "System.Security.Cryptography.Encoding/4.3.0": {
        "dependencies": {
          "Microsoft.NETCore.Platforms": "1.1.1",
          "System.Collections": "4.3.0",
          "System.Collections.Concurrent": "4.3.0",
          "System.Linq": "4.3.0",
          "System.Resources.ResourceManager": "4.3.0",
          "System.Runtime": "4.3.0",
          "System.Runtime.Extensions": "4.3.0",
          "System.Runtime.Handles": "4.3.0",
          "System.Runtime.InteropServices": "4.3.0",
          "System.Security.Cryptography.Primitives": "4.3.0",
          "System.Text.Encoding": "4.3.0",
          "runtime.native.System.Security.Cryptography.OpenSsl": "4.3.2"
        }
      },
      "System.Security.Cryptography.OpenSsl/4.3.0": {
        "dependencies": {
          "System.Collections": "4.3.0",
          "System.IO": "4.3.0",
          "System.Resources.ResourceManager": "4.3.0",
          "System.Runtime": "4.3.0",
          "System.Runtime.Extensions": "4.3.0",
          "System.Runtime.Handles": "4.3.0",
          "System.Runtime.InteropServices": "4.3.0",
          "System.Runtime.Numerics": "4.3.0",
          "System.Security.Cryptography.Algorithms": "4.3.0",
          "System.Security.Cryptography.Encoding": "4.3.0",
          "System.Security.Cryptography.Primitives": "4.3.0",
          "System.Text.Encoding": "4.3.0",
          "runtime.native.System.Security.Cryptography.OpenSsl": "4.3.2"
        }
      },
      "System.Security.Cryptography.Pkcs/6.0.1": {
        "dependencies": {
          "System.Formats.Asn1": "6.0.0"
        },
        "runtime": {
          "lib/net6.0/System.Security.Cryptography.Pkcs.dll": {
            "assemblyVersion": "6.0.0.0",
            "fileVersion": "6.0.522.21309"
          }
        },
        "runtimeTargets": {
          "runtimes/win/lib/net6.0/System.Security.Cryptography.Pkcs.dll": {
            "rid": "win",
            "assetType": "runtime",
            "assemblyVersion": "6.0.0.0",
            "fileVersion": "6.0.522.21309"
          }
        }
      },
      "System.Security.Cryptography.Primitives/4.3.0": {
        "dependencies": {
          "System.Diagnostics.Debug": "4.3.0",
          "System.Globalization": "4.3.0",
          "System.IO": "4.3.0",
          "System.Resources.ResourceManager": "4.3.0",
          "System.Runtime": "4.3.0",
          "System.Threading": "4.3.0",
          "System.Threading.Tasks": "4.3.0"
        }
      },
      "System.Security.Cryptography.ProtectedData/4.5.0": {
        "runtime": {
          "lib/netstandard2.0/System.Security.Cryptography.ProtectedData.dll": {
            "assemblyVersion": "4.0.3.0",
            "fileVersion": "4.6.26515.6"
          }
        },
        "runtimeTargets": {
          "runtimes/win/lib/netstandard2.0/System.Security.Cryptography.ProtectedData.dll": {
            "rid": "win",
            "assetType": "runtime",
            "assemblyVersion": "4.0.3.0",
            "fileVersion": "4.6.26515.6"
          }
        }
      },
      "System.Security.Cryptography.X509Certificates/4.3.0": {
        "dependencies": {
          "Microsoft.NETCore.Platforms": "1.1.1",
          "System.Collections": "4.3.0",
          "System.Diagnostics.Debug": "4.3.0",
          "System.Globalization": "4.3.0",
          "System.Globalization.Calendars": "4.3.0",
          "System.IO": "4.3.0",
          "System.IO.FileSystem": "4.3.0",
          "System.IO.FileSystem.Primitives": "4.3.0",
          "System.Resources.ResourceManager": "4.3.0",
          "System.Runtime": "4.3.0",
          "System.Runtime.Extensions": "4.3.0",
          "System.Runtime.Handles": "4.3.0",
          "System.Runtime.InteropServices": "4.3.0",
          "System.Runtime.Numerics": "4.3.0",
          "System.Security.Cryptography.Algorithms": "4.3.0",
          "System.Security.Cryptography.Cng": "4.5.0",
          "System.Security.Cryptography.Csp": "4.3.0",
          "System.Security.Cryptography.Encoding": "4.3.0",
          "System.Security.Cryptography.OpenSsl": "4.3.0",
          "System.Security.Cryptography.Primitives": "4.3.0",
          "System.Text.Encoding": "4.3.0",
          "System.Threading": "4.3.0",
          "runtime.native.System": "4.3.0",
          "runtime.native.System.Net.Http": "4.3.0",
          "runtime.native.System.Security.Cryptography.OpenSsl": "4.3.2"
        }
      },
      "System.Security.Cryptography.Xml/6.0.1": {
        "dependencies": {
          "System.Security.AccessControl": "6.0.0",
          "System.Security.Cryptography.Pkcs": "6.0.1"
        },
        "runtime": {
          "lib/net6.0/System.Security.Cryptography.Xml.dll": {
            "assemblyVersion": "6.0.0.0",
            "fileVersion": "6.0.822.36306"
          }
        }
      },
      "System.Security.Principal/4.3.0": {
        "dependencies": {
          "System.Runtime": "4.3.0"
        }
      },
      "System.Security.Principal.Windows/5.0.0": {},
      "System.Text.Encoding/4.3.0": {
        "dependencies": {
          "Microsoft.NETCore.Platforms": "1.1.1",
          "Microsoft.NETCore.Targets": "1.1.0",
          "System.Runtime": "4.3.0"
        }
      },
      "System.Text.Encodings.Web/6.0.0": {
        "dependencies": {
          "System.Runtime.CompilerServices.Unsafe": "6.0.0"
        }
      },
      "System.Text.Json/6.0.6": {
        "dependencies": {
          "System.Runtime.CompilerServices.Unsafe": "6.0.0",
          "System.Text.Encodings.Web": "6.0.0"
        },
        "runtime": {
          "lib/net6.0/System.Text.Json.dll": {
            "assemblyVersion": "6.0.0.0",
            "fileVersion": "6.0.922.41905"
          }
        }
      },
      "System.Threading/4.3.0": {
        "dependencies": {
          "System.Runtime": "4.3.0",
          "System.Threading.Tasks": "4.3.0"
        }
      },
      "System.Threading.Channels/4.7.1": {},
      "System.Threading.Tasks/4.3.0": {
        "dependencies": {
          "Microsoft.NETCore.Platforms": "1.1.1",
          "Microsoft.NETCore.Targets": "1.1.0",
          "System.Runtime": "4.3.0"
        }
      },
      "System.Threading.Tasks.Extensions/4.5.4": {}
    }
  },
  "libraries": {
    "OutlookCalendarWebAPI/1.0.0": {
      "type": "project",
      "serviceable": false,
      "sha512": ""
    },
    "Azure.Core/1.25.0": {
      "type": "package",
      "serviceable": true,
      "sha512": "sha512-X8Dd4sAggS84KScWIjEbFAdt2U1KDolQopTPoHVubG2y3CM54f9l6asVrP5Uy384NWXjsspPYaJgz5xHc+KvTA==",
      "path": "azure.core/1.25.0",
      "hashPath": "azure.core.1.25.0.nupkg.sha512"
    },
    "Azure.Identity/1.3.0": {
      "type": "package",
      "serviceable": true,
      "sha512": "sha512-l1SYfZKOFBuUFG7C2SWHmJcrQQaiXgBdVCycx4vcZQkC6efDVt7mzZ5pfJAFEJDBUq7mjRQ0RPq9ZDGdSswqMg==",
      "path": "azure.identity/1.3.0",
      "hashPath": "azure.identity.1.3.0.nupkg.sha512"
    },
    "Azure.Security.KeyVault.Certificates/4.1.0": {
      "type": "package",
      "serviceable": true,
      "sha512": "sha512-I+irkjO1JBzJWYBLhW835/b7GllxkjMbQwrirhxUJsf6FQnH+eIGin4T/jBLgyuu1zPsn2AxiUFju6Shb/uiNA==",
      "path": "azure.security.keyvault.certificates/4.1.0",
      "hashPath": "azure.security.keyvault.certificates.4.1.0.nupkg.sha512"
    },
    "Azure.Security.KeyVault.Secrets/4.1.0": {
      "type": "package",
      "serviceable": true,
      "sha512": "sha512-SK4XTPEaXI5UTdtSkr8TN4ZKnvazNHhybnnkxHgOyRAhV9ObcIjbrNlhS4ZeR8XtI+HidL+v/WIIVfR1+jKB8Q==",
      "path": "azure.security.keyvault.secrets/4.1.0",
      "hashPath": "azure.security.keyvault.secrets.4.1.0.nupkg.sha512"
    },
    "Karambolo.Extensions.Logging.File/3.3.1": {
      "type": "package",
      "serviceable": true,
      "sha512": "sha512-wkPTc/UEuSAwbO3/Ee+oCdotxncmc/DKwjM533Z0BKvJm94NLOvU2i7pifgMd6uAUJ8jy69OcFZRu7hXKbMW6g==",
      "path": "karambolo.extensions.logging.file/3.3.1",
      "hashPath": "karambolo.extensions.logging.file.3.3.1.nupkg.sha512"
    },
    "Microsoft.AspNetCore.Authentication.JwtBearer/5.0.12": {
      "type": "package",
      "serviceable": true,
      "sha512": "sha512-3JwsAApGFKFBVvlV8vMNdF04Mb8zPuHT5q8sunwNTbaN4JtjXLVGKAyUCy+I1JeqP+3EKfZxe3wMj4fVEOLKlA==",
      "path": "microsoft.aspnetcore.authentication.jwtbearer/5.0.12",
      "hashPath": "microsoft.aspnetcore.authentication.jwtbearer.5.0.12.nupkg.sha512"
    },
    "Microsoft.AspNetCore.Authentication.OpenIdConnect/5.0.12": {
      "type": "package",
      "serviceable": true,
      "sha512": "sha512-YtPrKHTie1TZeqnlbIKAEU51alFD+SCvTIu2L2no+UGStU5RzEqRuJvVfe+aP9tSrJE+Wyy+YdUqZLtA9QfkHg==",
      "path": "microsoft.aspnetcore.authentication.openidconnect/5.0.12",
      "hashPath": "microsoft.aspnetcore.authentication.openidconnect.5.0.12.nupkg.sha512"
    },
    "Microsoft.AspNetCore.Cryptography.Internal/5.0.8": {
      "type": "package",
      "serviceable": true,
      "sha512": "sha512-giHheyNLOb+cAHpb8b0GhaS0xJ+hAIIDSyWPe5aOPwpgctsjOPRKFyn/268xv+zBVuEtyRJJEnBUlkOVzyIpZA==",
      "path": "microsoft.aspnetcore.cryptography.internal/5.0.8",
      "hashPath": "microsoft.aspnetcore.cryptography.internal.5.0.8.nupkg.sha512"
    },
    "Microsoft.AspNetCore.DataProtection/5.0.8": {
      "type": "package",
      "serviceable": true,
      "sha512": "sha512-wCMdfuKA+ePcB4nEDau5tNhhhC5NFa2LEXoRhk2Xaot13FFlyKA4t5UzIyV/OnAfB/bqbAIvChJD+biWY7u5SA==",
      "path": "microsoft.aspnetcore.dataprotection/5.0.8",
      "hashPath": "microsoft.aspnetcore.dataprotection.5.0.8.nupkg.sha512"
    },
    "Microsoft.AspNetCore.DataProtection.Abstractions/5.0.8": {
      "type": "package",
      "serviceable": true,
      "sha512": "sha512-ZI9S2NGjuOKXN3PxJcF8EKVwd1cqpWyUSqiVoH8gqq5tlHaXULwPmoR0DBOFON4sEFETRWI69f5RQ3tJWw205A==",
      "path": "microsoft.aspnetcore.dataprotection.abstractions/5.0.8",
      "hashPath": "microsoft.aspnetcore.dataprotection.abstractions.5.0.8.nupkg.sha512"
    },
    "Microsoft.Bcl.AsyncInterfaces/1.1.1": {
      "type": "package",
      "serviceable": true,
      "sha512": "sha512-yuvf07qFWFqtK3P/MRkEKLhn5r2UbSpVueRziSqj0yJQIKFwG1pq9mOayK3zE5qZCTs0CbrwL9M6R8VwqyGy2w==",
      "path": "microsoft.bcl.asyncinterfaces/1.1.1",
      "hashPath": "microsoft.bcl.asyncinterfaces.1.1.1.nupkg.sha512"
    },
    "Microsoft.CSharp/4.5.0": {
      "type": "package",
      "serviceable": true,
      "sha512": "sha512-kaj6Wb4qoMuH3HySFJhxwQfe8R/sJsNJnANrvv8WdFPMoNbKY5htfNscv+LHCu5ipz+49m2e+WQXpLXr9XYemQ==",
      "path": "microsoft.csharp/4.5.0",
      "hashPath": "microsoft.csharp.4.5.0.nupkg.sha512"
    },
    "Microsoft.EntityFrameworkCore/6.0.7": {
      "type": "package",
      "serviceable": true,
      "sha512": "sha512-9BsvGSpTzxvqnxH19wLBFivK5TzWmsHZQc/1cQ4b2e+k85aIG9R4FYewQLHZdPrAxNQImXjTyW5nRI3s1rpt6A==",
      "path": "microsoft.entityframeworkcore/6.0.7",
      "hashPath": "microsoft.entityframeworkcore.6.0.7.nupkg.sha512"
    },
    "Microsoft.EntityFrameworkCore.Abstractions/6.0.7": {
      "type": "package",
      "serviceable": true,
      "sha512": "sha512-bjU0CkTqldgpVPTSj9M+R/3EaTz+u0jMeQMIC91YdGYDbpX/tAN5UYx+Ihzk4AtP8gmhburQUgMTdnmCE9c5sA==",
      "path": "microsoft.entityframeworkcore.abstractions/6.0.7",
      "hashPath": "microsoft.entityframeworkcore.abstractions.6.0.7.nupkg.sha512"
    },
    "Microsoft.EntityFrameworkCore.Analyzers/6.0.7": {
      "type": "package",
      "serviceable": true,
      "sha512": "sha512-VAOrGma8mRspUb/9quwIr21UZVqfWOcRQqhcYNkHBUD7woenwFTBvntiC9h2Ebtvj/BrRfezqjaHpWVvPSg4dw==",
      "path": "microsoft.entityframeworkcore.analyzers/6.0.7",
      "hashPath": "microsoft.entityframeworkcore.analyzers.6.0.7.nupkg.sha512"
    },
    "Microsoft.EntityFrameworkCore.Relational/6.0.7": {
      "type": "package",
      "serviceable": true,
      "sha512": "sha512-0uo4fPDHutMbd9AJJEKl2q/2fYuFGA8tEBE2fQeQFaNDd+F/aUjaXc1FUD84J7Wcax8WP40rZo1E0u9A0yPPZw==",
      "path": "microsoft.entityframeworkcore.relational/6.0.7",
      "hashPath": "microsoft.entityframeworkcore.relational.6.0.7.nupkg.sha512"
    },
    "Microsoft.Extensions.ApiDescription.Server/3.0.0": {
      "type": "package",
      "serviceable": true,
      "sha512": "sha512-LH4OE/76F6sOCslif7+Xh3fS/wUUrE5ryeXAMcoCnuwOQGT5Smw0p57IgDh/pHgHaGz/e+AmEQb7pRgb++wt0w==",
      "path": "microsoft.extensions.apidescription.server/3.0.0",
      "hashPath": "microsoft.extensions.apidescription.server.3.0.0.nupkg.sha512"
    },
    "Microsoft.Extensions.Caching.Abstractions/6.0.0": {
      "type": "package",
      "serviceable": true,
      "sha512": "sha512-bcz5sSFJbganH0+YrfvIjJDIcKNW7TL07C4d1eTmXy/wOt52iz4LVogJb6pazs7W0+74j0YpXFErvp++Aq5Bsw==",
      "path": "microsoft.extensions.caching.abstractions/6.0.0",
      "hashPath": "microsoft.extensions.caching.abstractions.6.0.0.nupkg.sha512"
    },
    "Microsoft.Extensions.Caching.Memory/6.0.1": {
      "type": "package",
      "serviceable": true,
      "sha512": "sha512-B4y+Cev05eMcjf1na0v9gza6GUtahXbtY1JCypIgx3B4Ea/KAgsWyXEmW4q6zMbmTMtKzmPVk09rvFJirvMwTg==",
      "path": "microsoft.extensions.caching.memory/6.0.1",
      "hashPath": "microsoft.extensions.caching.memory.6.0.1.nupkg.sha512"
    },
    "Microsoft.Extensions.Configuration/3.0.0": {
      "type": "package",
      "serviceable": true,
      "sha512": "sha512-KECbOpM0EySVbKTQDN9o0swdnZpwpdhuYngnnJGzXdcAc+JR1mv7iF4lOyK00KSH8OZjobO0TUeo3mn7J2rdrA==",
      "path": "microsoft.extensions.configuration/3.0.0",
      "hashPath": "microsoft.extensions.configuration.3.0.0.nupkg.sha512"
    },
    "Microsoft.Extensions.Configuration.Abstractions/6.0.0": {
      "type": "package",
      "serviceable": true,
      "sha512": "sha512-qWzV9o+ZRWq+pGm+1dF+R7qTgTYoXvbyowRoBxQJGfqTpqDun2eteerjRQhq5PQ/14S+lqto3Ft4gYaRyl4rdQ==",
      "path": "microsoft.extensions.configuration.abstractions/6.0.0",
      "hashPath": "microsoft.extensions.configuration.abstractions.6.0.0.nupkg.sha512"
    },
    "Microsoft.Extensions.Configuration.Binder/3.0.0": {
      "type": "package",
      "serviceable": true,
      "sha512": "sha512-iw3UL25Cw9GBILJOs8srwcId2UCz5+BxTu//EN5dO2dOFNtHcNJgnUiqIlmcGi0orIco0pDuDXuIDvhkrY/sGQ==",
      "path": "microsoft.extensions.configuration.binder/3.0.0",
      "hashPath": "microsoft.extensions.configuration.binder.3.0.0.nupkg.sha512"
    },
    "Microsoft.Extensions.DependencyInjection/6.0.0": {
      "type": "package",
      "serviceable": true,
      "sha512": "sha512-k6PWQMuoBDGGHOQTtyois2u4AwyVcIwL2LaSLlTZQm2CYcJ1pxbt6jfAnpWmzENA/wfrYRI/X9DTLoUkE4AsLw==",
      "path": "microsoft.extensions.dependencyinjection/6.0.0",
      "hashPath": "microsoft.extensions.dependencyinjection.6.0.0.nupkg.sha512"
    },
    "Microsoft.Extensions.DependencyInjection.Abstractions/6.0.0": {
      "type": "package",
      "serviceable": true,
      "sha512": "sha512-xlzi2IYREJH3/m6+lUrQlujzX8wDitm4QGnUu6kUXTQAWPuZY8i+ticFJbzfqaetLA6KR/rO6Ew/HuYD+bxifg==",
      "path": "microsoft.extensions.dependencyinjection.abstractions/6.0.0",
      "hashPath": "microsoft.extensions.dependencyinjection.abstractions.6.0.0.nupkg.sha512"
    },
    "Microsoft.Extensions.FileProviders.Abstractions/5.0.0": {
      "type": "package",
      "serviceable": true,
      "sha512": "sha512-iuZIiZ3mteEb+nsUqpGXKx2cGF+cv6gWPd5jqQI4hzqdiJ6I94ddLjKhQOuRW1lueHwocIw30xbSHGhQj0zjdQ==",
      "path": "microsoft.extensions.fileproviders.abstractions/5.0.0",
      "hashPath": "microsoft.extensions.fileproviders.abstractions.5.0.0.nupkg.sha512"
    },
    "Microsoft.Extensions.FileProviders.Physical/3.0.0": {
      "type": "package",
      "serviceable": true,
      "sha512": "sha512-76yB1N8hvzDaTqx3epda5sl/3HATw2FskztmmLmfWuvaooaNgbDa37Jyc7IyBCC4PreXEW/XLEET9w6fiJZOFg==",
      "path": "microsoft.extensions.fileproviders.physical/3.0.0",
      "hashPath": "microsoft.extensions.fileproviders.physical.3.0.0.nupkg.sha512"
    },
    "Microsoft.Extensions.FileSystemGlobbing/3.0.0": {
      "type": "package",
      "serviceable": true,
      "sha512": "sha512-E1GcUu8JvY/8QfqMUYTs6HlDLefMYhEzeHsjrhRqOZguBmDTFU8d8m+mGtHEyYHWMRT1TEiha0a8I2AuozDUWQ==",
      "path": "microsoft.extensions.filesystemglobbing/3.0.0",
      "hashPath": "microsoft.extensions.filesystemglobbing.3.0.0.nupkg.sha512"
    },
    "Microsoft.Extensions.Hosting.Abstractions/5.0.0": {
      "type": "package",
      "serviceable": true,
      "sha512": "sha512-cbUOCePYBl1UhM+N2zmDSUyJ6cODulbtUd9gEzMFIK3RQDtP/gJsE08oLcBSXH3Q1RAQ0ex7OAB3HeTKB9bXpg==",
      "path": "microsoft.extensions.hosting.abstractions/5.0.0",
      "hashPath": "microsoft.extensions.hosting.abstractions.5.0.0.nupkg.sha512"
    },
    "Microsoft.Extensions.Logging/6.0.0": {
      "type": "package",
      "serviceable": true,
      "sha512": "sha512-eIbyj40QDg1NDz0HBW0S5f3wrLVnKWnDJ/JtZ+yJDFnDj90VoPuoPmFkeaXrtu+0cKm5GRAwoDf+dBWXK0TUdg==",
      "path": "microsoft.extensions.logging/6.0.0",
      "hashPath": "microsoft.extensions.logging.6.0.0.nupkg.sha512"
    },
    "Microsoft.Extensions.Logging.Abstractions/6.0.0": {
      "type": "package",
      "serviceable": true,
      "sha512": "sha512-/HggWBbTwy8TgebGSX5DBZ24ndhzi93sHUBDvP1IxbZD7FDokYzdAr6+vbWGjw2XAfR2EJ1sfKUotpjHnFWPxA==",
      "path": "microsoft.extensions.logging.abstractions/6.0.0",
      "hashPath": "microsoft.extensions.logging.abstractions.6.0.0.nupkg.sha512"
    },
    "Microsoft.Extensions.Logging.Configuration/3.0.0": {
      "type": "package",
      "serviceable": true,
      "sha512": "sha512-Z+3mqptSt3pCo0Nl4pmwK+nTpBpRxNe2lFaBCCtsT0bb88GeFKvw6Mg+0IeEgDrfj7h4qzMYRbL5cSFMpENQZA==",
      "path": "microsoft.extensions.logging.configuration/3.0.0",
      "hashPath": "microsoft.extensions.logging.configuration.3.0.0.nupkg.sha512"
    },
    "Microsoft.Extensions.Options/6.0.0": {
      "type": "package",
      "serviceable": true,
      "sha512": "sha512-dzXN0+V1AyjOe2xcJ86Qbo233KHuLEY0njf/P2Kw8SfJU+d45HNS2ctJdnEnrWbM9Ye2eFgaC5Mj9otRMU6IsQ==",
      "path": "microsoft.extensions.options/6.0.0",
      "hashPath": "microsoft.extensions.options.6.0.0.nupkg.sha512"
    },
    "Microsoft.Extensions.Options.ConfigurationExtensions/3.0.0": {
      "type": "package",
      "serviceable": true,
      "sha512": "sha512-g4V1TXEKUDgOnp1ZKREKSvITYxcUsTqfxNlOaCG7/xlCurLLzFupm+ULkGqIBUIBK+q3kHmt42pVyHwGIcCBmg==",
      "path": "microsoft.extensions.options.configurationextensions/3.0.0",
      "hashPath": "microsoft.extensions.options.configurationextensions.3.0.0.nupkg.sha512"
    },
    "Microsoft.Extensions.Primitives/6.0.0": {
      "type": "package",
      "serviceable": true,
      "sha512": "sha512-9+PnzmQFfEFNR9J2aDTfJGGupShHjOuGw4VUv+JB044biSHrnmCIMD+mJHmb2H7YryrfBEXDurxQ47gJZdCKNQ==",
      "path": "microsoft.extensions.primitives/6.0.0",
      "hashPath": "microsoft.extensions.primitives.6.0.0.nupkg.sha512"
    },
    "Microsoft.Graph/4.42.0": {
      "type": "package",
      "serviceable": true,
      "sha512": "sha512-OrCz4TKIsN3xZzR2gMC+7g8ebI9IacmdN2EyoYkbrlYFaWwOLhe6XOjQ8+W1A3U2KPiv0Sm023ujjqyYI6dVNA==",
      "path": "microsoft.graph/4.42.0",
      "hashPath": "microsoft.graph.4.42.0.nupkg.sha512"
    },
    "Microsoft.Graph.Core/2.0.13": {
      "type": "package",
      "serviceable": true,
      "sha512": "sha512-sjsUBeZv48ypGA6SbLd81kDxJE7lM1JFupY8JlF4F6kgKDUeMN7SZImW2x77Z/jsXX9otGRgumNE8j+h8jILeQ==",
      "path": "microsoft.graph.core/2.0.13",
      "hashPath": "microsoft.graph.core.2.0.13.nupkg.sha512"
    },
    "Microsoft.Identity.Client/4.47.1": {
      "type": "package",
      "serviceable": true,
      "sha512": "sha512-Z0cqLUSSCcbhmNmgEvlsC12dK7m/BIvKXxGMVnITfeivFzkQsBH61+SXErWvb2A8E7nsI4VIVv6FPxGoZf4E1w==",
      "path": "microsoft.identity.client/4.47.1",
      "hashPath": "microsoft.identity.client.4.47.1.nupkg.sha512"
    },
    "Microsoft.Identity.Client.Extensions.Msal/2.16.5": {
      "type": "package",
      "serviceable": true,
      "sha512": "sha512-VlGUZEpF8KP/GCfFI59sdE0WA0o9quqwM1YQY0dSp6jpGy5EOBkureaybLfpwCuYUUjQbLkN2p7neUIcQCfbzA==",
      "path": "microsoft.identity.client.extensions.msal/2.16.5",
      "hashPath": "microsoft.identity.client.extensions.msal.2.16.5.nupkg.sha512"
    },
    "Microsoft.Identity.Web/1.25.3": {
      "type": "package",
      "serviceable": true,
      "sha512": "sha512-f/3CqsChTm/1timU9/yB6749CMnIjXHgA47spaV9f9ROch3wzTr9zqo4bfe6hIZ9Ng+UYc4MpDWvtNfyhc9NrQ==",
      "path": "microsoft.identity.web/1.25.3",
      "hashPath": "microsoft.identity.web.1.25.3.nupkg.sha512"
    },
    "Microsoft.Identity.Web.Certificate/1.25.3": {
      "type": "package",
      "serviceable": true,
      "sha512": "sha512-RPY9hZBZUsQX+Xa4DY1UbDgXSiA0JB02ATg8p86943kxm1PaO32vDdchGrf1444uS0jAxkoXHpMTXA+jVsXfCA==",
      "path": "microsoft.identity.web.certificate/1.25.3",
      "hashPath": "microsoft.identity.web.certificate.1.25.3.nupkg.sha512"
    },
    "Microsoft.Identity.Web.Certificateless/1.25.3": {
      "type": "package",
      "serviceable": true,
      "sha512": "sha512-Jr+nPLckp849S4UGpiDMctU4hjJSPrqdnHkAFppR7wBvW7SHIien3C87ceJn8ZGMwOJRNiQIdrEmol+tNZaCgw==",
      "path": "microsoft.identity.web.certificateless/1.25.3",
      "hashPath": "microsoft.identity.web.certificateless.1.25.3.nupkg.sha512"
    },
    "Microsoft.Identity.Web.TokenCache/1.25.3": {
      "type": "package",
      "serviceable": true,
      "sha512": "sha512-GDo5ljK2jHNfhFy//7Srpjd5SrVLHq4ic0bF3wdmKjRLcN3baR8wgnGL37m/6HJ+yI/ByEQCwffozqaXH8mRsA==",
      "path": "microsoft.identity.web.tokencache/1.25.3",
      "hashPath": "microsoft.identity.web.tokencache.1.25.3.nupkg.sha512"
    },
    "Microsoft.IdentityModel.Abstractions/6.23.1": {
      "type": "package",
      "serviceable": true,
      "sha512": "sha512-LTUhLFzhzCEWUwhIgiYFAFAf8xxOg9VOZQgldiCiAHIejVfEiyG4a4sq00QVmwv9Wdig2uCHVQudaTSA3t+/7A==",
      "path": "microsoft.identitymodel.abstractions/6.23.1",
      "hashPath": "microsoft.identitymodel.abstractions.6.23.1.nupkg.sha512"
    },
    "Microsoft.IdentityModel.JsonWebTokens/6.23.1": {
      "type": "package",
      "serviceable": true,
      "sha512": "sha512-Tfa2g1b6wE9Ds3MG/LivoRjk9+FAiPE24kMpTK0vbUt03t44zfVNz9O1QU/yf6Ic5hfk+DrY9huPxg7EeTYBGg==",
      "path": "microsoft.identitymodel.jsonwebtokens/6.23.1",
      "hashPath": "microsoft.identitymodel.jsonwebtokens.6.23.1.nupkg.sha512"
    },
    "Microsoft.IdentityModel.Logging/6.23.1": {
      "type": "package",
      "serviceable": true,
      "sha512": "sha512-SF+1itC0kQDMvfo8jzWYfQ1mkt5CZsC8/KYMjt6N9LAP7sCCKdZkkJHgvat+DxTfZATBtcvJ6tGyEaiVR1ASUg==",
      "path": "microsoft.identitymodel.logging/6.23.1",
      "hashPath": "microsoft.identitymodel.logging.6.23.1.nupkg.sha512"
    },
    "Microsoft.IdentityModel.LoggingExtensions/6.23.1": {
      "type": "package",
      "serviceable": true,
      "sha512": "sha512-Zu9fGC6nUsfL08TficO+ok6OguMImb0lZwhIZ1YTQ3Xqe+bj3BXwWHhZ/XiNyqEueh/ZQGXKOivoM4M6j66Qyw==",
      "path": "microsoft.identitymodel.loggingextensions/6.23.1",
      "hashPath": "microsoft.identitymodel.loggingextensions.6.23.1.nupkg.sha512"
    },
    "Microsoft.IdentityModel.Protocols/6.23.1": {
      "type": "package",
      "serviceable": true,
      "sha512": "sha512-d2lZVBpWvzZIYNQr+F+nAX1tS4LgwbDZFbiOKexN92OkecCWYpp6yPv6m9yaKeFwPelzE6GrSGuIxrfPfo3Hyg==",
      "path": "microsoft.identitymodel.protocols/6.23.1",
      "hashPath": "microsoft.identitymodel.protocols.6.23.1.nupkg.sha512"
    },
    "Microsoft.IdentityModel.Protocols.OpenIdConnect/6.23.1": {
      "type": "package",
      "serviceable": true,
      "sha512": "sha512-XBUe3i6UxdNTYDBZLpDkZXEsj/Z/SRAlG4X9tp7JP/RGNclf+SpL++nAwY8Map2cimsrOuabdl0aGiQ5r/WAuQ==",
      "path": "microsoft.identitymodel.protocols.openidconnect/6.23.1",
      "hashPath": "microsoft.identitymodel.protocols.openidconnect.6.23.1.nupkg.sha512"
    },
    "Microsoft.IdentityModel.Tokens/6.23.1": {
      "type": "package",
      "serviceable": true,
      "sha512": "sha512-hPPOGGIZRFl8QxZfc4Saa56Q4RrpBoT7E+VgW9qdHoiRm/ieh1aSaeXhp3uNh8EBkO92skiav2I4AUxwtBDHgA==",
      "path": "microsoft.identitymodel.tokens/6.23.1",
      "hashPath": "microsoft.identitymodel.tokens.6.23.1.nupkg.sha512"
    },
    "Microsoft.IdentityModel.Validators/6.23.1": {
      "type": "package",
      "serviceable": true,
      "sha512": "sha512-5LHYXQ19R7rqw7BC8+iaxrocYaFAFfg3u6LS9jr2RFwCDsyeW+ICrJE0qPPxW7qzg2TsmBP/KbzaL9Del7dVzw==",
      "path": "microsoft.identitymodel.validators/6.23.1",
      "hashPath": "microsoft.identitymodel.validators.6.23.1.nupkg.sha512"
    },
    "Microsoft.NETCore.Platforms/1.1.1": {
      "type": "package",
      "serviceable": true,
      "sha512": "sha512-TMBuzAHpTenGbGgk0SMTwyEkyijY/Eae4ZGsFNYJvAr/LDn1ku3Etp3FPxChmDp5HHF3kzJuoaa08N0xjqAJfQ==",
      "path": "microsoft.netcore.platforms/1.1.1",
      "hashPath": "microsoft.netcore.platforms.1.1.1.nupkg.sha512"
    },
    "Microsoft.NETCore.Targets/1.1.0": {
      "type": "package",
      "serviceable": true,
      "sha512": "sha512-aOZA3BWfz9RXjpzt0sRJJMjAscAUm3Hoa4UWAfceV9UTYxgwZ1lZt5nO2myFf+/jetYQo4uTP7zS8sJY67BBxg==",
      "path": "microsoft.netcore.targets/1.1.0",
      "hashPath": "microsoft.netcore.targets.1.1.0.nupkg.sha512"
    },
    "Microsoft.OpenApi/1.2.3": {
      "type": "package",
      "serviceable": true,
      "sha512": "sha512-Nug3rO+7Kl5/SBAadzSMAVgqDlfGjJZ0GenQrLywJ84XGKO0uRqkunz5Wyl0SDwcR71bAATXvSdbdzPrYRYKGw==",
      "path": "microsoft.openapi/1.2.3",
      "hashPath": "microsoft.openapi.1.2.3.nupkg.sha512"
    },
    "Microsoft.Win32.Registry/5.0.0": {
      "type": "package",
      "serviceable": true,
      "sha512": "sha512-dDoKi0PnDz31yAyETfRntsLArTlVAVzUzCIvvEDsDsucrl33Dl8pIJG06ePTJTI3tGpeyHS9Cq7Foc/s4EeKcg==",
      "path": "microsoft.win32.registry/5.0.0",
      "hashPath": "microsoft.win32.registry.5.0.0.nupkg.sha512"
    },
    "Newtonsoft.Json/13.0.1": {
      "type": "package",
      "serviceable": true,
      "sha512": "sha512-ppPFpBcvxdsfUonNcvITKqLl3bqxWbDCZIzDWHzjpdAHRFfZe0Dw9HmA0+za13IdyrgJwpkDTDA9fHaxOrt20A==",
      "path": "newtonsoft.json/13.0.1",
      "hashPath": "newtonsoft.json.13.0.1.nupkg.sha512"
    },
    "Npgsql/6.0.7": {
      "type": "package",
      "serviceable": true,
      "sha512": "sha512-HhD5q/VUJY++tCzc0eCrhtsxmUdP7NxNhUMOdYW6sqpC6NRlFLvUDf5JyRj0gOGkXe3Tn49toaisgvLqlzQ2JQ==",
      "path": "npgsql/6.0.7",
      "hashPath": "npgsql.6.0.7.nupkg.sha512"
    },
    "Npgsql.EntityFrameworkCore.PostgreSQL/6.0.7": {
      "type": "package",
      "serviceable": true,
      "sha512": "sha512-kqwX2V9Znw/QjLDL6SyYEHiy9toMuqMTyCJ4ebQu65FpV8pElYKpOlBbxoyr6YNgqieXEMmpnE0TIoTKsVdeLw==",
      "path": "npgsql.entityframeworkcore.postgresql/6.0.7",
      "hashPath": "npgsql.entityframeworkcore.postgresql.6.0.7.nupkg.sha512"
    },
    "runtime.debian.8-x64.runtime.native.System.Security.Cryptography.OpenSsl/4.3.2": {
      "type": "package",
      "serviceable": true,
      "sha512": "sha512-7VSGO0URRKoMEAq0Sc9cRz8mb6zbyx/BZDEWhgPdzzpmFhkam3fJ1DAGWFXBI4nGlma+uPKpfuMQP5LXRnOH5g==",
      "path": "runtime.debian.8-x64.runtime.native.system.security.cryptography.openssl/4.3.2",
      "hashPath": "runtime.debian.8-x64.runtime.native.system.security.cryptography.openssl.4.3.2.nupkg.sha512"
    },
    "runtime.fedora.23-x64.runtime.native.System.Security.Cryptography.OpenSsl/4.3.2": {
      "type": "package",
      "serviceable": true,
      "sha512": "sha512-0oAaTAm6e2oVH+/Zttt0cuhGaePQYKII1dY8iaqP7CvOpVKgLybKRFvQjXR2LtxXOXTVPNv14j0ot8uV+HrUmw==",
      "path": "runtime.fedora.23-x64.runtime.native.system.security.cryptography.openssl/4.3.2",
      "hashPath": "runtime.fedora.23-x64.runtime.native.system.security.cryptography.openssl.4.3.2.nupkg.sha512"
    },
    "runtime.fedora.24-x64.runtime.native.System.Security.Cryptography.OpenSsl/4.3.2": {
      "type": "package",
      "serviceable": true,
      "sha512": "sha512-G24ibsCNi5Kbz0oXWynBoRgtGvsw5ZSVEWjv13/KiCAM8C6wz9zzcCniMeQFIkJ2tasjo2kXlvlBZhplL51kGg==",
      "path": "runtime.fedora.24-x64.runtime.native.system.security.cryptography.openssl/4.3.2",
      "hashPath": "runtime.fedora.24-x64.runtime.native.system.security.cryptography.openssl.4.3.2.nupkg.sha512"
    },
    "runtime.native.System/4.3.0": {
      "type": "package",
      "serviceable": true,
      "sha512": "sha512-c/qWt2LieNZIj1jGnVNsE2Kl23Ya2aSTBuXMD6V7k9KWr6l16Tqdwq+hJScEpWER9753NWC8h96PaVNY5Ld7Jw==",
      "path": "runtime.native.system/4.3.0",
      "hashPath": "runtime.native.system.4.3.0.nupkg.sha512"
    },
    "runtime.native.System.Net.Http/4.3.0": {
      "type": "package",
      "serviceable": true,
      "sha512": "sha512-ZVuZJqnnegJhd2k/PtAbbIcZ3aZeITq3sj06oKfMBSfphW3HDmk/t4ObvbOk/JA/swGR0LNqMksAh/f7gpTROg==",
      "path": "runtime.native.system.net.http/4.3.0",
      "hashPath": "runtime.native.system.net.http.4.3.0.nupkg.sha512"
    },
    "runtime.native.System.Security.Cryptography.Apple/4.3.0": {
      "type": "package",
      "serviceable": true,
      "sha512": "sha512-DloMk88juo0OuOWr56QG7MNchmafTLYWvABy36izkrLI5VledI0rq28KGs1i9wbpeT9NPQrx/wTf8U2vazqQ3Q==",
      "path": "runtime.native.system.security.cryptography.apple/4.3.0",
      "hashPath": "runtime.native.system.security.cryptography.apple.4.3.0.nupkg.sha512"
    },
    "runtime.native.System.Security.Cryptography.OpenSsl/4.3.2": {
      "type": "package",
      "serviceable": true,
      "sha512": "sha512-QR1OwtwehHxSeQvZKXe+iSd+d3XZNkEcuWMFYa2i0aG1l+lR739HPicKMlTbJst3spmeekDVBUS7SeS26s4U/g==",
      "path": "runtime.native.system.security.cryptography.openssl/4.3.2",
      "hashPath": "runtime.native.system.security.cryptography.openssl.4.3.2.nupkg.sha512"
    },
    "runtime.opensuse.13.2-x64.runtime.native.System.Security.Cryptography.OpenSsl/4.3.2": {
      "type": "package",
      "serviceable": true,
      "sha512": "sha512-I+GNKGg2xCHueRd1m9PzeEW7WLbNNLznmTuEi8/vZX71HudUbx1UTwlGkiwMri7JLl8hGaIAWnA/GONhu+LOyQ==",
      "path": "runtime.opensuse.13.2-x64.runtime.native.system.security.cryptography.openssl/4.3.2",
      "hashPath": "runtime.opensuse.13.2-x64.runtime.native.system.security.cryptography.openssl.4.3.2.nupkg.sha512"
    },
    "runtime.opensuse.42.1-x64.runtime.native.System.Security.Cryptography.OpenSsl/4.3.2": {
      "type": "package",
      "serviceable": true,
      "sha512": "sha512-1Z3TAq1ytS1IBRtPXJvEUZdVsfWfeNEhBkbiOCGEl9wwAfsjP2lz3ZFDx5tq8p60/EqbS0HItG5piHuB71RjoA==",
      "path": "runtime.opensuse.42.1-x64.runtime.native.system.security.cryptography.openssl/4.3.2",
      "hashPath": "runtime.opensuse.42.1-x64.runtime.native.system.security.cryptography.openssl.4.3.2.nupkg.sha512"
    },
    "runtime.osx.10.10-x64.runtime.native.System.Security.Cryptography.Apple/4.3.0": {
      "type": "package",
      "serviceable": true,
      "sha512": "sha512-kVXCuMTrTlxq4XOOMAysuNwsXWpYeboGddNGpIgNSZmv1b6r/s/DPk0fYMB7Q5Qo4bY68o48jt4T4y5BVecbCQ==",
      "path": "runtime.osx.10.10-x64.runtime.native.system.security.cryptography.apple/4.3.0",
      "hashPath": "runtime.osx.10.10-x64.runtime.native.system.security.cryptography.apple.4.3.0.nupkg.sha512"
    },
    "runtime.osx.10.10-x64.runtime.native.System.Security.Cryptography.OpenSsl/4.3.2": {
      "type": "package",
      "serviceable": true,
      "sha512": "sha512-6mU/cVmmHtQiDXhnzUImxIcDL48GbTk+TsptXyJA+MIOG9LRjPoAQC/qBFB7X+UNyK86bmvGwC8t+M66wsYC8w==",
      "path": "runtime.osx.10.10-x64.runtime.native.system.security.cryptography.openssl/4.3.2",
      "hashPath": "runtime.osx.10.10-x64.runtime.native.system.security.cryptography.openssl.4.3.2.nupkg.sha512"
    },
    "runtime.rhel.7-x64.runtime.native.System.Security.Cryptography.OpenSsl/4.3.2": {
      "type": "package",
      "serviceable": true,
      "sha512": "sha512-vjwG0GGcTW/PPg6KVud8F9GLWYuAV1rrw1BKAqY0oh4jcUqg15oYF1+qkGR2x2ZHM4DQnWKQ7cJgYbfncz/lYg==",
      "path": "runtime.rhel.7-x64.runtime.native.system.security.cryptography.openssl/4.3.2",
      "hashPath": "runtime.rhel.7-x64.runtime.native.system.security.cryptography.openssl.4.3.2.nupkg.sha512"
    },
    "runtime.ubuntu.14.04-x64.runtime.native.System.Security.Cryptography.OpenSsl/4.3.2": {
      "type": "package",
      "serviceable": true,
      "sha512": "sha512-7KMFpTkHC/zoExs+PwP8jDCWcrK9H6L7soowT80CUx3e+nxP/AFnq0AQAW5W76z2WYbLAYCRyPfwYFG6zkvQRw==",
      "path": "runtime.ubuntu.14.04-x64.runtime.native.system.security.cryptography.openssl/4.3.2",
      "hashPath": "runtime.ubuntu.14.04-x64.runtime.native.system.security.cryptography.openssl.4.3.2.nupkg.sha512"
    },
    "runtime.ubuntu.16.04-x64.runtime.native.System.Security.Cryptography.OpenSsl/4.3.2": {
      "type": "package",
      "serviceable": true,
      "sha512": "sha512-xrlmRCnKZJLHxyyLIqkZjNXqgxnKdZxfItrPkjI+6pkRo5lHX8YvSZlWrSI5AVwLMi4HbNWP7064hcAWeZKp5w==",
      "path": "runtime.ubuntu.16.04-x64.runtime.native.system.security.cryptography.openssl/4.3.2",
      "hashPath": "runtime.ubuntu.16.04-x64.runtime.native.system.security.cryptography.openssl.4.3.2.nupkg.sha512"
    },
    "runtime.ubuntu.16.10-x64.runtime.native.System.Security.Cryptography.OpenSsl/4.3.2": {
      "type": "package",
      "serviceable": true,
      "sha512": "sha512-leXiwfiIkW7Gmn7cgnNcdtNAU70SjmKW3jxGj1iKHOvdn0zRWsgv/l2OJUO5zdGdiv2VRFnAsxxhDgMzofPdWg==",
      "path": "runtime.ubuntu.16.10-x64.runtime.native.system.security.cryptography.openssl/4.3.2",
      "hashPath": "runtime.ubuntu.16.10-x64.runtime.native.system.security.cryptography.openssl.4.3.2.nupkg.sha512"
    },
    "Swashbuckle.AspNetCore/6.2.3": {
      "type": "package",
      "serviceable": true,
      "sha512": "sha512-cnzQDn0Le+hInsw2SYwlOhOCPXpYi/szcvnyqZJ12v+QyrLBwAmWXBg6RIyHB18s/mLeywC+Rg2O9ndz0IUNYQ==",
      "path": "swashbuckle.aspnetcore/6.2.3",
      "hashPath": "swashbuckle.aspnetcore.6.2.3.nupkg.sha512"
    },
    "Swashbuckle.AspNetCore.Annotations/6.4.0": {
      "type": "package",
      "serviceable": true,
      "sha512": "sha512-frMa+jf9YVpCiMN+mFehfEdgQ7QEqLrhNssNmPwAgfXbdLwedQiVpBpoq+20dImdeNbN7RgY12soH2DvEzSaqw==",
      "path": "swashbuckle.aspnetcore.annotations/6.4.0",
      "hashPath": "swashbuckle.aspnetcore.annotations.6.4.0.nupkg.sha512"
    },
    "Swashbuckle.AspNetCore.Swagger/6.4.0": {
      "type": "package",
      "serviceable": true,
      "sha512": "sha512-nl4SBgGM+cmthUcpwO/w1lUjevdDHAqRvfUoe4Xp/Uvuzt9mzGUwyFCqa3ODBAcZYBiFoKvrYwz0rabslJvSmQ==",
      "path": "swashbuckle.aspnetcore.swagger/6.4.0",
      "hashPath": "swashbuckle.aspnetcore.swagger.6.4.0.nupkg.sha512"
    },
    "Swashbuckle.AspNetCore.SwaggerGen/6.4.0": {
      "type": "package",
      "serviceable": true,
      "sha512": "sha512-lXhcUBVqKrPFAQF7e/ZeDfb5PMgE8n5t6L5B6/BQSpiwxgHzmBcx8Msu42zLYFTvR5PIqE9Q9lZvSQAcwCxJjw==",
      "path": "swashbuckle.aspnetcore.swaggergen/6.4.0",
      "hashPath": "swashbuckle.aspnetcore.swaggergen.6.4.0.nupkg.sha512"
    },
    "Swashbuckle.AspNetCore.SwaggerUI/6.2.3": {
      "type": "package",
      "serviceable": true,
      "sha512": "sha512-bCRI87uKJVb4G+KURWm8LQrL64St04dEFZcF6gIM67Zc0Sr/N47EO83ybLMYOvfNdO1DCv8xwPcrz9J/VEhQ5g==",
      "path": "swashbuckle.aspnetcore.swaggerui/6.2.3",
      "hashPath": "swashbuckle.aspnetcore.swaggerui.6.2.3.nupkg.sha512"
    },
    "System.Collections/4.3.0": {
      "type": "package",
      "serviceable": true,
      "sha512": "sha512-3Dcj85/TBdVpL5Zr+gEEBUuFe2icOnLalmEh9hfck1PTYbbyWuZgh4fmm2ysCLTrqLQw6t3TgTyJ+VLp+Qb+Lw==",
      "path": "system.collections/4.3.0",
      "hashPath": "system.collections.4.3.0.nupkg.sha512"
    },
    "System.Collections.Concurrent/4.3.0": {
      "type": "package",
      "serviceable": true,
      "sha512": "sha512-ztl69Xp0Y/UXCL+3v3tEU+lIy+bvjKNUmopn1wep/a291pVPK7dxBd6T7WnlQqRog+d1a/hSsgRsmFnIBKTPLQ==",
      "path": "system.collections.concurrent/4.3.0",
      "hashPath": "system.collections.concurrent.4.3.0.nupkg.sha512"
    },
    "System.Collections.Immutable/6.0.0": {
      "type": "package",
      "serviceable": true,
      "sha512": "sha512-l4zZJ1WU2hqpQQHXz1rvC3etVZN+2DLmQMO79FhOTZHMn8tDRr+WU287sbomD0BETlmKDn0ygUgVy9k5xkkJdA==",
      "path": "system.collections.immutable/6.0.0",
      "hashPath": "system.collections.immutable.6.0.0.nupkg.sha512"
    },
    "System.Diagnostics.Debug/4.3.0": {
      "type": "package",
      "serviceable": true,
      "sha512": "sha512-ZUhUOdqmaG5Jk3Xdb8xi5kIyQYAA4PnTNlHx1mu9ZY3qv4ELIdKbnL/akbGaKi2RnNUWaZsAs31rvzFdewTj2g==",
      "path": "system.diagnostics.debug/4.3.0",
      "hashPath": "system.diagnostics.debug.4.3.0.nupkg.sha512"
    },
    "System.Diagnostics.DiagnosticSource/6.0.0": {
      "type": "package",
      "serviceable": true,
      "sha512": "sha512-frQDfv0rl209cKm1lnwTgFPzNigy2EKk1BS3uAvHvlBVKe5cymGyHO+Sj+NLv5VF/AhHsqPIUUwya5oV4CHMUw==",
      "path": "system.diagnostics.diagnosticsource/6.0.0",
      "hashPath": "system.diagnostics.diagnosticsource.6.0.0.nupkg.sha512"
    },
    "System.Diagnostics.Tracing/4.3.0": {
      "type": "package",
      "serviceable": true,
      "sha512": "sha512-rswfv0f/Cqkh78rA5S8eN8Neocz234+emGCtTF3lxPY96F+mmmUen6tbn0glN6PMvlKQb9bPAY5e9u7fgPTkKw==",
      "path": "system.diagnostics.tracing/4.3.0",
      "hashPath": "system.diagnostics.tracing.4.3.0.nupkg.sha512"
    },
    "System.Formats.Asn1/6.0.0": {
      "type": "package",
      "serviceable": true,
      "sha512": "sha512-T6fD00dQ3NTbPDy31m4eQUwKW84s03z0N2C8HpOklyeaDgaJPa/TexP4/SkORMSOwc7WhKifnA6Ya33AkzmafA==",
      "path": "system.formats.asn1/6.0.0",
      "hashPath": "system.formats.asn1.6.0.0.nupkg.sha512"
    },
    "System.Globalization/4.3.0": {
      "type": "package",
      "serviceable": true,
      "sha512": "sha512-kYdVd2f2PAdFGblzFswE4hkNANJBKRmsfa2X5LG2AcWE1c7/4t0pYae1L8vfZ5xvE2nK/R9JprtToA61OSHWIg==",
      "path": "system.globalization/4.3.0",
      "hashPath": "system.globalization.4.3.0.nupkg.sha512"
    },
    "System.Globalization.Calendars/4.3.0": {
      "type": "package",
      "serviceable": true,
      "sha512": "sha512-GUlBtdOWT4LTV3I+9/PJW+56AnnChTaOqqTLFtdmype/L500M2LIyXgmtd9X2P2VOkmJd5c67H5SaC2QcL1bFA==",
      "path": "system.globalization.calendars/4.3.0",
      "hashPath": "system.globalization.calendars.4.3.0.nupkg.sha512"
    },
    "System.Globalization.Extensions/4.3.0": {
      "type": "package",
      "serviceable": true,
      "sha512": "sha512-FhKmdR6MPG+pxow6wGtNAWdZh7noIOpdD5TwQ3CprzgIE1bBBoim0vbR1+AWsWjQmU7zXHgQo4TWSP6lCeiWcQ==",
      "path": "system.globalization.extensions/4.3.0",
      "hashPath": "system.globalization.extensions.4.3.0.nupkg.sha512"
    },
    "System.IdentityModel.Tokens.Jwt/6.23.1": {
      "type": "package",
      "serviceable": true,
      "sha512": "sha512-f/bzIDc2ie8jIMprqM6icfy0JGZqaFxhiENjoDS1lQur/jjanrfzwo2xTcod0ADoILPi9RywfE8hI6Wg8BHxkw==",
      "path": "system.identitymodel.tokens.jwt/6.23.1",
      "hashPath": "system.identitymodel.tokens.jwt.6.23.1.nupkg.sha512"
    },
    "System.IO/4.3.0": {
      "type": "package",
      "serviceable": true,
      "sha512": "sha512-3qjaHvxQPDpSOYICjUoTsmoq5u6QJAFRUITgeT/4gqkF1bajbSmb1kwSxEA8AHlofqgcKJcM8udgieRNhaJ5Cg==",
      "path": "system.io/4.3.0",
      "hashPath": "system.io.4.3.0.nupkg.sha512"
    },
    "System.IO.FileSystem/4.3.0": {
      "type": "package",
      "serviceable": true,
      "sha512": "sha512-3wEMARTnuio+ulnvi+hkRNROYwa1kylvYahhcLk4HSoVdl+xxTFVeVlYOfLwrDPImGls0mDqbMhrza8qnWPTdA==",
      "path": "system.io.filesystem/4.3.0",
      "hashPath": "system.io.filesystem.4.3.0.nupkg.sha512"
    },
    "System.IO.FileSystem.Primitives/4.3.0": {
      "type": "package",
      "serviceable": true,
      "sha512": "sha512-6QOb2XFLch7bEc4lIcJH49nJN2HV+OC3fHDgsLVsBVBk3Y4hFAnOBGzJ2lUu7CyDDFo9IBWkSsnbkT6IBwwiMw==",
      "path": "system.io.filesystem.primitives/4.3.0",
      "hashPath": "system.io.filesystem.primitives.4.3.0.nupkg.sha512"
    },
    "System.Linq/4.3.0": {
      "type": "package",
      "serviceable": true,
      "sha512": "sha512-5DbqIUpsDp0dFftytzuMmc0oeMdQwjcP/EWxsksIz/w1TcFRkZ3yKKz0PqiYFMmEwPSWw+qNVqD7PJ889JzHbw==",
      "path": "system.linq/4.3.0",
      "hashPath": "system.linq.4.3.0.nupkg.sha512"
    },
    "System.Memory/4.5.3": {
      "type": "package",
      "serviceable": true,
      "sha512": "sha512-3oDzvc/zzetpTKWMShs1AADwZjQ/36HnsufHRPcOjyRAAMLDlu2iD33MBI2opxnezcVUtXyqDXXjoFMOU9c7SA==",
      "path": "system.memory/4.5.3",
      "hashPath": "system.memory.4.5.3.nupkg.sha512"
    },
    "System.Memory.Data/1.0.2": {
      "type": "package",
      "serviceable": true,
      "sha512": "sha512-JGkzeqgBsiZwKJZ1IxPNsDFZDhUvuEdX8L8BDC8N3KOj+6zMcNU28CNN59TpZE/VJYy9cP+5M+sbxtWJx3/xtw==",
      "path": "system.memory.data/1.0.2",
      "hashPath": "system.memory.data.1.0.2.nupkg.sha512"
    },
    "System.Net.Http/4.3.4": {
      "type": "package",
      "serviceable": true,
      "sha512": "sha512-aOa2d51SEbmM+H+Csw7yJOuNZoHkrP2XnAurye5HWYgGVVU54YZDvsLUYRv6h18X3sPnjNCANmN7ZhIPiqMcjA==",
      "path": "system.net.http/4.3.4",
      "hashPath": "system.net.http.4.3.4.nupkg.sha512"
    },
    "System.Net.Primitives/4.3.0": {
      "type": "package",
      "serviceable": true,
      "sha512": "sha512-qOu+hDwFwoZPbzPvwut2qATe3ygjeQBDQj91xlsaqGFQUI5i4ZnZb8yyQuLGpDGivEPIt8EJkd1BVzVoP31FXA==",
      "path": "system.net.primitives/4.3.0",
      "hashPath": "system.net.primitives.4.3.0.nupkg.sha512"
    },
    "System.Numerics.Vectors/4.5.0": {
      "type": "package",
      "serviceable": true,
      "sha512": "sha512-QQTlPTl06J/iiDbJCiepZ4H//BVraReU4O4EoRw1U02H5TLUIT7xn3GnDp9AXPSlJUDyFs4uWjWafNX6WrAojQ==",
      "path": "system.numerics.vectors/4.5.0",
      "hashPath": "system.numerics.vectors.4.5.0.nupkg.sha512"
    },
    "System.Reflection/4.3.0": {
      "type": "package",
      "serviceable": true,
      "sha512": "sha512-KMiAFoW7MfJGa9nDFNcfu+FpEdiHpWgTcS2HdMpDvt9saK3y/G4GwprPyzqjFH9NTaGPQeWNHU+iDlDILj96aQ==",
      "path": "system.reflection/4.3.0",
      "hashPath": "system.reflection.4.3.0.nupkg.sha512"
    },
    "System.Reflection.Primitives/4.3.0": {
      "type": "package",
      "serviceable": true,
      "sha512": "sha512-5RXItQz5As4xN2/YUDxdpsEkMhvw3e6aNveFXUn4Hl/udNTCNhnKp8lT9fnc3MhvGKh1baak5CovpuQUXHAlIA==",
      "path": "system.reflection.primitives/4.3.0",
      "hashPath": "system.reflection.primitives.4.3.0.nupkg.sha512"
    },
    "System.Resources.ResourceManager/4.3.0": {
      "type": "package",
      "serviceable": true,
      "sha512": "sha512-/zrcPkkWdZmI4F92gL/TPumP98AVDu/Wxr3CSJGQQ+XN6wbRZcyfSKVoPo17ilb3iOr0cCRqJInGwNMolqhS8A==",
      "path": "system.resources.resourcemanager/4.3.0",
      "hashPath": "system.resources.resourcemanager.4.3.0.nupkg.sha512"
    },
    "System.Runtime/4.3.0": {
      "type": "package",
      "serviceable": true,
      "sha512": "sha512-JufQi0vPQ0xGnAczR13AUFglDyVYt4Kqnz1AZaiKZ5+GICq0/1MH/mO/eAJHt/mHW1zjKBJd7kV26SrxddAhiw==",
      "path": "system.runtime/4.3.0",
      "hashPath": "system.runtime.4.3.0.nupkg.sha512"
    },
    "System.Runtime.CompilerServices.Unsafe/6.0.0": {
      "type": "package",
      "serviceable": true,
      "sha512": "sha512-/iUeP3tq1S0XdNNoMz5C9twLSrM/TH+qElHkXWaPvuNOt+99G75NrV0OS2EqHx5wMN7popYjpc8oTjC1y16DLg==",
      "path": "system.runtime.compilerservices.unsafe/6.0.0",
      "hashPath": "system.runtime.compilerservices.unsafe.6.0.0.nupkg.sha512"
    },
    "System.Runtime.Extensions/4.3.0": {
      "type": "package",
      "serviceable": true,
      "sha512": "sha512-guW0uK0fn5fcJJ1tJVXYd7/1h5F+pea1r7FLSOz/f8vPEqbR2ZAknuRDvTQ8PzAilDveOxNjSfr0CHfIQfFk8g==",
      "path": "system.runtime.extensions/4.3.0",
      "hashPath": "system.runtime.extensions.4.3.0.nupkg.sha512"
    },
    "System.Runtime.Handles/4.3.0": {
      "type": "package",
      "serviceable": true,
      "sha512": "sha512-OKiSUN7DmTWeYb3l51A7EYaeNMnvxwE249YtZz7yooT4gOZhmTjIn48KgSsw2k2lYdLgTKNJw/ZIfSElwDRVgg==",
      "path": "system.runtime.handles/4.3.0",
      "hashPath": "system.runtime.handles.4.3.0.nupkg.sha512"
    },
    "System.Runtime.InteropServices/4.3.0": {
      "type": "package",
      "serviceable": true,
      "sha512": "sha512-uv1ynXqiMK8mp1GM3jDqPCFN66eJ5w5XNomaK2XD+TuCroNTLFGeZ+WCmBMcBDyTFKou3P6cR6J/QsaqDp7fGQ==",
      "path": "system.runtime.interopservices/4.3.0",
      "hashPath": "system.runtime.interopservices.4.3.0.nupkg.sha512"
    },
    "System.Runtime.Numerics/4.3.0": {
      "type": "package",
      "serviceable": true,
      "sha512": "sha512-yMH+MfdzHjy17l2KESnPiF2dwq7T+xLnSJar7slyimAkUh/gTrS9/UQOtv7xarskJ2/XDSNvfLGOBQPjL7PaHQ==",
      "path": "system.runtime.numerics/4.3.0",
      "hashPath": "system.runtime.numerics.4.3.0.nupkg.sha512"
    },
    "System.Security.AccessControl/6.0.0": {
      "type": "package",
      "serviceable": true,
      "sha512": "sha512-AUADIc0LIEQe7MzC+I0cl0rAT8RrTAKFHl53yHjEUzNVIaUlhFY11vc2ebiVJzVBuOzun6F7FBA+8KAbGTTedQ==",
      "path": "system.security.accesscontrol/6.0.0",
      "hashPath": "system.security.accesscontrol.6.0.0.nupkg.sha512"
    },
    "System.Security.Claims/4.3.0": {
      "type": "package",
      "serviceable": true,
      "sha512": "sha512-P/+BR/2lnc4PNDHt/TPBAWHVMLMRHsyYZbU1NphW4HIWzCggz8mJbTQQ3MKljFE7LS3WagmVFuBgoLcFzYXlkA==",
      "path": "system.security.claims/4.3.0",
      "hashPath": "system.security.claims.4.3.0.nupkg.sha512"
    },
    "System.Security.Cryptography.Algorithms/4.3.0": {
      "type": "package",
      "serviceable": true,
      "sha512": "sha512-W1kd2Y8mYSCgc3ULTAZ0hOP2dSdG5YauTb1089T0/kRcN2MpSAW1izOFROrJgxSlMn3ArsgHXagigyi+ibhevg==",
      "path": "system.security.cryptography.algorithms/4.3.0",
      "hashPath": "system.security.cryptography.algorithms.4.3.0.nupkg.sha512"
    },
    "System.Security.Cryptography.Cng/4.5.0": {
      "type": "package",
      "serviceable": true,
      "sha512": "sha512-WG3r7EyjUe9CMPFSs6bty5doUqT+q9pbI80hlNzo2SkPkZ4VTuZkGWjpp77JB8+uaL4DFPRdBsAY+DX3dBK92A==",
      "path": "system.security.cryptography.cng/4.5.0",
      "hashPath": "system.security.cryptography.cng.4.5.0.nupkg.sha512"
    },
    "System.Security.Cryptography.Csp/4.3.0": {
      "type": "package",
      "serviceable": true,
      "sha512": "sha512-X4s/FCkEUnRGnwR3aSfVIkldBmtURMhmexALNTwpjklzxWU7yjMk7GHLKOZTNkgnWnE0q7+BCf9N2LVRWxewaA==",
      "path": "system.security.cryptography.csp/4.3.0",
      "hashPath": "system.security.cryptography.csp.4.3.0.nupkg.sha512"
    },
    "System.Security.Cryptography.Encoding/4.3.0": {
      "type": "package",
      "serviceable": true,
      "sha512": "sha512-1DEWjZZly9ae9C79vFwqaO5kaOlI5q+3/55ohmq/7dpDyDfc8lYe7YVxJUZ5MF/NtbkRjwFRo14yM4OEo9EmDw==",
      "path": "system.security.cryptography.encoding/4.3.0",
      "hashPath": "system.security.cryptography.encoding.4.3.0.nupkg.sha512"
    },
    "System.Security.Cryptography.OpenSsl/4.3.0": {
      "type": "package",
      "serviceable": true,
      "sha512": "sha512-h4CEgOgv5PKVF/HwaHzJRiVboL2THYCou97zpmhjghx5frc7fIvlkY1jL+lnIQyChrJDMNEXS6r7byGif8Cy4w==",
      "path": "system.security.cryptography.openssl/4.3.0",
      "hashPath": "system.security.cryptography.openssl.4.3.0.nupkg.sha512"
    },
    "System.Security.Cryptography.Pkcs/6.0.1": {
      "type": "package",
      "serviceable": true,
      "sha512": "sha512-ynmbW2GjIGg9K1wXmVIRs4IlyDolf0JXNpzFQ8JCVgwM+myUC2JeUggl2PwQig2PNVMegKmN1aAx7WPQ8tI3vA==",
      "path": "system.security.cryptography.pkcs/6.0.1",
      "hashPath": "system.security.cryptography.pkcs.6.0.1.nupkg.sha512"
    },
    "System.Security.Cryptography.Primitives/4.3.0": {
      "type": "package",
      "serviceable": true,
      "sha512": "sha512-7bDIyVFNL/xKeFHjhobUAQqSpJq9YTOpbEs6mR233Et01STBMXNAc/V+BM6dwYGc95gVh/Zf+iVXWzj3mE8DWg==",
      "path": "system.security.cryptography.primitives/4.3.0",
      "hashPath": "system.security.cryptography.primitives.4.3.0.nupkg.sha512"
    },
    "System.Security.Cryptography.ProtectedData/4.5.0": {
      "type": "package",
      "serviceable": true,
      "sha512": "sha512-wLBKzFnDCxP12VL9ANydSYhk59fC4cvOr9ypYQLPnAj48NQIhqnjdD2yhP8yEKyBJEjERWS9DisKL7rX5eU25Q==",
      "path": "system.security.cryptography.protecteddata/4.5.0",
      "hashPath": "system.security.cryptography.protecteddata.4.5.0.nupkg.sha512"
    },
    "System.Security.Cryptography.X509Certificates/4.3.0": {
      "type": "package",
      "serviceable": true,
      "sha512": "sha512-t2Tmu6Y2NtJ2um0RtcuhP7ZdNNxXEgUm2JeoA/0NvlMjAhKCnM1NX07TDl3244mVp3QU6LPEhT3HTtH1uF7IYw==",
      "path": "system.security.cryptography.x509certificates/4.3.0",
      "hashPath": "system.security.cryptography.x509certificates.4.3.0.nupkg.sha512"
    },
    "System.Security.Cryptography.Xml/6.0.1": {
      "type": "package",
      "serviceable": true,
      "sha512": "sha512-5e5bI28T0x73AwTsbuFP4qSRzthmU2C0Gqgg3AZ3KTxmSyA+Uhk31puA3srdaeWaacVnHhLdJywCzqOiEpbO/w==",
      "path": "system.security.cryptography.xml/6.0.1",
      "hashPath": "system.security.cryptography.xml.6.0.1.nupkg.sha512"
    },
    "System.Security.Principal/4.3.0": {
      "type": "package",
      "serviceable": true,
      "sha512": "sha512-I1tkfQlAoMM2URscUtpcRo/hX0jinXx6a/KUtEQoz3owaYwl3qwsO8cbzYVVnjxrzxjHo3nJC+62uolgeGIS9A==",
      "path": "system.security.principal/4.3.0",
      "hashPath": "system.security.principal.4.3.0.nupkg.sha512"
    },
    "System.Security.Principal.Windows/5.0.0": {
      "type": "package",
      "serviceable": true,
      "sha512": "sha512-t0MGLukB5WAVU9bO3MGzvlGnyJPgUlcwerXn1kzBRjwLKixT96XV0Uza41W49gVd8zEMFu9vQEFlv0IOrytICA==",
      "path": "system.security.principal.windows/5.0.0",
      "hashPath": "system.security.principal.windows.5.0.0.nupkg.sha512"
    },
    "System.Text.Encoding/4.3.0": {
      "type": "package",
      "serviceable": true,
      "sha512": "sha512-BiIg+KWaSDOITze6jGQynxg64naAPtqGHBwDrLaCtixsa5bKiR8dpPOHA7ge3C0JJQizJE+sfkz1wV+BAKAYZw==",
      "path": "system.text.encoding/4.3.0",
      "hashPath": "system.text.encoding.4.3.0.nupkg.sha512"
    },
    "System.Text.Encodings.Web/6.0.0": {
      "type": "package",
      "serviceable": true,
      "sha512": "sha512-Vg8eB5Tawm1IFqj4TVK1czJX89rhFxJo9ELqc/Eiq0eXy13RK00eubyU6TJE6y+GQXjyV5gSfiewDUZjQgSE0w==",
      "path": "system.text.encodings.web/6.0.0",
      "hashPath": "system.text.encodings.web.6.0.0.nupkg.sha512"
    },
    "System.Text.Json/6.0.6": {
      "type": "package",
      "serviceable": true,
      "sha512": "sha512-GZ+62pLOr544jwSvyXv5ezSfzlFBTjLuPhgOS2dnKuknAA8dPNUGXLKTHf9XdsudU9JpbtweXnE4oEiKEB2T1Q==",
      "path": "system.text.json/6.0.6",
      "hashPath": "system.text.json.6.0.6.nupkg.sha512"
    },
    "System.Threading/4.3.0": {
      "type": "package",
      "serviceable": true,
      "sha512": "sha512-VkUS0kOBcUf3Wwm0TSbrevDDZ6BlM+b/HRiapRFWjM5O0NS0LviG0glKmFK+hhPDd1XFeSdU1GmlLhb2CoVpIw==",
      "path": "system.threading/4.3.0",
      "hashPath": "system.threading.4.3.0.nupkg.sha512"
    },
    "System.Threading.Channels/4.7.1": {
      "type": "package",
      "serviceable": true,
      "sha512": "sha512-6akRtHK/wab3246t4p5v3HQrtQk8LboOt5T4dtpNgsp3zvDeM4/Gx8V12t0h+c/W9/enUrilk8n6EQqdQorZAA==",
      "path": "system.threading.channels/4.7.1",
      "hashPath": "system.threading.channels.4.7.1.nupkg.sha512"
    },
    "System.Threading.Tasks/4.3.0": {
      "type": "package",
      "serviceable": true,
      "sha512": "sha512-LbSxKEdOUhVe8BezB/9uOGGppt+nZf6e1VFyw6v3DN6lqitm0OSn2uXMOdtP0M3W4iMcqcivm2J6UgqiwwnXiA==",
      "path": "system.threading.tasks/4.3.0",
      "hashPath": "system.threading.tasks.4.3.0.nupkg.sha512"
    },
    "System.Threading.Tasks.Extensions/4.5.4": {
      "type": "package",
      "serviceable": true,
      "sha512": "sha512-zteT+G8xuGu6mS+mzDzYXbzS7rd3K6Fjb9RiZlYlJPam2/hU7JCBZBVEcywNuR+oZ1ncTvc/cq0faRr3P01OVg==",
      "path": "system.threading.tasks.extensions/4.5.4",
      "hashPath": "system.threading.tasks.extensions.4.5.4.nupkg.sha512"
    }
  }
}